"target_pos_x_deg","match_pos_x_deg","clutter_Xs","target_code","target_letter","rand_lines"
10,0,0,"","",4
10,0,0,"","letters/ln_upperS.csv",1
10,0,1,"","letters/ln_upperC.csv",2
10,-10,0,"","letters/ln_upperS.csv",1
0,-10,0,"","letters/ln_lowerA.csv",1
10,0,0,"stimAx","",0
10,-10,1,"stim2","",3
10,-0,1,"","letters/ln_upperX.csv",0
10,0,0,"","letters/ln_upperQ.csv",1
10,-10,0,"","letters/ln_upperF.csv",1
10,0,0,"","",4
10,0,0,"","letters/ln_lowerB.csv",1
10,0,0,"","letters/ln_upperE.csv",1
0,10,1,""
10,0,1,""
10,0,1,""
10,0,1,""
10,0,1,""
