0.0,ver,1.000000,0.000000
0.15000,lc:adehilmpambncodp,10.000000,8.000000
0.93000,ori,0.000000,0.000000,Line,0,0,0,1.570273,47
0.93000,ori,0.000000,0.000000,Line,1,0,23,0.000000,31
0.93000,lc:adehilmpambncodp,100.000000,8.000000
2.901000,sel,1.000000,0.000000
3.401000,sel,0.000000,0.000000
4.539000,ori,-0.015708,0.000000,Line,0,0,0,1.554565,47
4.711000,ori,-0.015708,0.000000,Line,0,0,0,1.538857,47
4.867000,ori,-0.015708,0.000000,Line,0,0,0,1.523149,47
5.23000,ori,-0.015708,0.000000,Line,0,0,0,1.507441,47
5.195000,ori,-0.015708,0.000000,Line,0,0,0,1.491733,47
5.351000,ori,-0.015708,0.000000,Line,0,0,0,1.476025,47
5.522000,ori,-0.015708,0.000000,Line,0,0,0,1.460317,47
5.678000,ori,-0.015708,0.000000,Line,0,0,0,1.444609,47
5.850000,ori,-0.015708,0.000000,Line,0,0,0,1.428901,47
5.990000,ori,-0.015708,0.000000,Line,0,0,0,1.413193,47
6.162000,ori,-0.015708,0.000000,Line,0,0,0,1.397485,47
6.333000,ori,-0.015708,0.000000,Line,0,0,0,1.381777,47
6.489000,ori,-0.015708,0.000000,Line,0,0,0,1.366069,47
6.661000,ori,-0.015708,0.000000,Line,0,0,0,1.350362,47
6.848000,ori,-0.015708,0.000000,Line,0,0,0,1.334654,47
7.20000,ori,-0.015708,0.000000,Line,0,0,0,1.318946,47
7.176000,ori,-0.015708,0.000000,Line,0,0,0,1.303238,47
7.347000,ori,-0.015708,0.000000,Line,0,0,0,1.287530,47
7.519000,ori,-0.015708,0.000000,Line,0,0,0,1.271822,47
7.659000,ori,-0.015708,0.000000,Line,0,0,0,1.256114,47
7.847000,ori,-0.015708,0.000000,Line,0,0,0,1.240406,47
8.18000,ori,-0.015708,0.000000,Line,0,0,0,1.224698,47
8.205000,ori,-0.015708,0.000000,Line,0,0,0,1.208990,47
8.377000,ori,-0.015708,0.000000,Line,0,0,0,1.193282,47
8.564000,ori,-0.015708,0.000000,Line,0,0,0,1.177574,47
8.798000,ori,-0.015708,0.000000,Line,0,0,0,1.161866,47
9.1000,ori,-0.015708,0.000000,Line,0,0,0,1.146158,47
9.219000,ori,-0.015708,0.000000,Line,0,0,0,1.130450,47
9.453000,ori,-0.015708,0.000000,Line,0,0,0,1.114742,47
9.719000,ori,-0.015708,0.000000,Line,0,0,0,1.099034,47
10.421000,ori,-0.015708,0.000000,Line,0,0,0,1.083326,47
12.12000,length,1.000000,0.000000,Line,0,0,0,1.083326,48
12.339000,length,1.000000,0.000000,Line,0,0,0,1.083326,49
12.558000,length,1.000000,0.000000,Line,0,0,0,1.083326,50
12.807000,length,1.000000,0.000000,Line,0,0,0,1.083326,51
13.119000,length,1.000000,0.000000,Line,0,0,0,1.083326,52
13.806000,length,1.000000,0.000000,Line,0,0,0,1.083326,53
14.773000,sel,1.000000,0.000000
15.194000,pos,0.000000,1.000000,Line,1,0,24,0.000000,31
15.459000,pos,0.000000,1.000000,Line,1,0,25,0.000000,31
15.647000,pos,0.000000,1.000000,Line,1,0,26,0.000000,31
15.834000,pos,0.000000,1.000000,Line,1,0,27,0.000000,31
16.567000,pos,0.000000,1.000000,Line,1,0,28,0.000000,31
18.876000,add,1.000000,3.000000
20.997000,length,1.000000,0.000000,Line,2,0,0,1.570796,40
21.169000,length,1.000000,0.000000,Line,2,0,0,1.570796,41
21.387000,ori,0.015708,0.000000,Line,2,0,0,1.586504,41
21.575000,ori,0.015708,0.000000,Line,2,0,0,1.602212,41
21.699000,length,1.000000,0.000000,Line,2,0,0,1.602212,42
21.746000,ori,0.015708,0.000000,Line,2,0,0,1.617920,42
21.855000,length,1.000000,0.000000,Line,2,0,0,1.617920,43
21.933000,ori,0.015708,0.000000,Line,2,0,0,1.633628,43
22.11000,length,1.000000,0.000000,Line,2,0,0,1.633628,44
22.89000,ori,0.015708,0.000000,Line,2,0,0,1.649336,44
22.167000,length,1.000000,0.000000,Line,2,0,0,1.649336,45
22.261000,ori,0.015708,0.000000,Line,2,0,0,1.665044,45
22.308000,length,1.000000,0.000000,Line,2,0,0,1.665044,46
22.464000,length,1.000000,0.000000,Line,2,0,0,1.665044,47
22.604000,ori,0.015708,0.000000,Line,2,0,0,1.680752,47
22.635000,length,1.000000,0.000000,Line,2,0,0,1.680752,48
22.791000,length,1.000000,0.000000,Line,2,0,0,1.680752,49
22.838000,ori,0.015708,0.000000,Line,2,0,0,1.696460,49
22.963000,length,1.000000,0.000000,Line,2,0,0,1.696460,50
23.41000,ori,0.015708,0.000000,Line,2,0,0,1.712168,50
23.103000,length,1.000000,0.000000,Line,2,0,0,1.712168,51
23.244000,ori,0.015708,0.000000,Line,2,0,0,1.727876,51
23.431000,ori,0.015708,0.000000,Line,2,0,0,1.743584,51
23.587000,ori,0.015708,0.000000,Line,2,0,0,1.759292,51
23.837000,ori,0.015708,0.000000,Line,2,0,0,1.775000,51
24.39000,ori,0.015708,0.000000,Line,2,0,0,1.790708,51
24.211000,ori,0.015708,0.000000,Line,2,0,0,1.806416,51
24.398000,length,-1.000000,0.000000,Line,2,0,0,1.806416,50
24.523000,ori,0.015708,0.000000,Line,2,0,0,1.822124,50
24.679000,ori,0.015708,0.000000,Line,2,0,0,1.837832,50
24.882000,ori,0.015708,0.000000,Line,2,0,0,1.853540,50
25.100000,ori,0.015708,0.000000,Line,2,0,0,1.869248,50
25.303000,ori,0.015708,0.000000,Line,2,0,0,1.884956,50
25.506000,ori,0.015708,0.000000,Line,2,0,0,1.900664,50
25.709000,ori,0.015708,0.000000,Line,2,0,0,1.916372,50
25.927000,ori,0.015708,0.000000,Line,2,0,0,1.932079,50
26.130000,ori,0.015708,0.000000,Line,2,0,0,1.947787,50
26.364000,ori,0.015708,0.000000,Line,2,0,0,1.963495,50
26.582000,ori,0.015708,0.000000,Line,2,0,0,1.979203,50
26.816000,ori,0.015708,0.000000,Line,2,0,0,1.994911,50
27.35000,ori,0.015708,0.000000,Line,2,0,0,2.010619,50
27.269000,ori,0.015708,0.000000,Line,2,0,0,2.026327,50
27.549000,ori,0.015708,0.000000,Line,2,0,0,2.042035,50
28.64000,ori,0.015708,0.000000,Line,2,0,0,2.057743,50
29.655000,ori,0.015708,0.000000,Line,2,0,0,2.073451,50
30.77000,ori,0.015708,0.000000,Line,2,0,0,2.089159,50
31.418000,length,1.000000,0.000000,Line,2,0,0,2.089159,51
31.933000,length,1.000000,0.000000,Line,2,0,0,2.089159,52
32.479000,length,1.000000,0.000000,Line,2,0,0,2.089159,53
33.9000,length,1.000000,0.000000,Line,2,0,0,2.089159,54
34.632000,sel,0.000000,0.000000
36.145000,length,1.000000,0.000000,Line,0,0,0,1.083326,54
37.143000,ori,-0.015708,0.000000,Line,0,0,0,1.067618,54
37.346000,ori,-0.015708,0.000000,Line,0,0,0,1.051910,54
37.518000,ori,-0.015708,0.000000,Line,0,0,0,1.036202,54
39.764000,ori,0.015708,0.000000,Line,0,0,0,1.051910,54
41.979000,ori,0.015708,0.000000,Line,0,0,0,1.067618,54
42.120000,ori,0.015708,0.000000,Line,0,0,0,1.083326,54
42.432000,ori,0.015708,0.000000,Line,0,0,0,1.099034,54
42.697000,ori,0.015708,0.000000,Line,0,0,0,1.114742,54
42.869000,ori,0.015708,0.000000,Line,0,0,0,1.130450,54
43.40000,ori,0.015708,0.000000,Line,0,0,0,1.146158,54
43.212000,ori,0.015708,0.000000,Line,0,0,0,1.161866,54
43.368000,ori,0.015708,0.000000,Line,0,0,0,1.177574,54
43.524000,ori,0.015708,0.000000,Line,0,0,0,1.193282,54
43.711000,ori,0.015708,0.000000,Line,0,0,0,1.208990,54
43.898000,ori,0.015708,0.000000,Line,0,0,0,1.224698,54
44.85000,ori,0.015708,0.000000,Line,0,0,0,1.240406,54
44.522000,ori,0.015708,0.000000,Line,0,0,0,1.256114,54
44.694000,ori,0.015708,0.000000,Line,0,0,0,1.271822,54
44.897000,ori,0.015708,0.000000,Line,0,0,0,1.287530,54
45.53000,ori,0.015708,0.000000,Line,0,0,0,1.303238,54
45.255000,ori,0.015708,0.000000,Line,0,0,0,1.318946,54
45.443000,ori,0.015708,0.000000,Line,0,0,0,1.334654,54
45.552000,ori,0.015708,0.000000,Line,0,0,0,1.350362,54
46.20000,ori,0.015708,0.000000,Line,0,0,0,1.366069,54
46.191000,ori,0.015708,0.000000,Line,0,0,0,1.381777,54
46.394000,ori,0.015708,0.000000,Line,0,0,0,1.397485,54
46.566000,ori,0.015708,0.000000,Line,0,0,0,1.413193,54
46.737000,ori,0.015708,0.000000,Line,0,0,0,1.428901,54
46.940000,ori,0.015708,0.000000,Line,0,0,0,1.444609,54
47.127000,ori,0.015708,0.000000,Line,0,0,0,1.460317,54
47.268000,ori,0.015708,0.000000,Line,0,0,0,1.476025,54
47.455000,ori,0.015708,0.000000,Line,0,0,0,1.491733,54
47.642000,ori,0.015708,0.000000,Line,0,0,0,1.507441,54
47.798000,ori,0.015708,0.000000,Line,0,0,0,1.523149,54
47.970000,ori,0.015708,0.000000,Line,0,0,0,1.538857,54
48.219000,ori,0.015708,0.000000,Line,0,0,0,1.554565,54
55.817000,sel,1.000000,0.000000
56.534000,sel,2.000000,0.000000
60.450000,pos,0.500000,0.500000,Line,2,0,0,2.089159,54
60.481000,pos,0.500000,0.000000,Line,2,1,0,2.089159,54
63.149000,pos,-1.000000,0.000000,Line,2,0,0,2.089159,54
63.492000,pos,-1.000000,0.000000,Line,2,-1,0,2.089159,54
64.490000,ori,0.015708,0.000000,Line,2,-1,0,2.104867,54
64.693000,ori,0.015708,0.000000,Line,2,-1,0,2.120575,54
65.130000,ori,-0.015708,0.000000,Line,2,-1,0,2.104867,54
65.317000,ori,-0.015708,0.000000,Line,2,-1,0,2.089159,54
65.489000,ori,-0.015708,0.000000,Line,2,-1,0,2.073451,54
65.645000,ori,-0.015708,0.000000,Line,2,-1,0,2.057743,54
65.832000,ori,-0.015708,0.000000,Line,2,-1,0,2.042035,54
66.35000,ori,-0.015708,0.000000,Line,2,-1,0,2.026327,54
66.191000,ori,-0.015708,0.000000,Line,2,-1,0,2.010619,54
66.347000,ori,-0.015708,0.000000,Line,2,-1,0,1.994911,54
66.627000,ori,-0.015708,0.000000,Line,2,-1,0,1.979203,54
66.768000,ori,-0.015708,0.000000,Line,2,-1,0,1.963495,54
67.17000,ori,-0.015708,0.000000,Line,2,-1,0,1.947787,54
67.189000,ori,-0.015708,0.000000,Line,2,-1,0,1.932079,54
67.392000,ori,-0.015708,0.000000,Line,2,-1,0,1.916372,54
67.563000,ori,-0.015708,0.000000,Line,2,-1,0,1.900664,54
67.704000,ori,-0.015708,0.000000,Line,2,-1,0,1.884956,54
67.875000,ori,-0.015708,0.000000,Line,2,-1,0,1.869248,54
68.47000,ori,-0.015708,0.000000,Line,2,-1,0,1.853540,54
68.187000,ori,-0.015708,0.000000,Line,2,-1,0,1.837832,54
68.359000,ori,-0.015708,0.000000,Line,2,-1,0,1.822124,54
68.515000,ori,-0.015708,0.000000,Line,2,-1,0,1.806416,54
68.671000,ori,-0.015708,0.000000,Line,2,-1,0,1.790708,54
68.858000,ori,-0.015708,0.000000,Line,2,-1,0,1.775000,54
69.30000,ori,-0.015708,0.000000,Line,2,-1,0,1.759292,54
69.201000,ori,-0.015708,0.000000,Line,2,-1,0,1.743584,54
69.357000,ori,-0.015708,0.000000,Line,2,-1,0,1.727876,54
69.529000,ori,-0.015708,0.000000,Line,2,-1,0,1.712168,54
69.701000,ori,-0.015708,0.000000,Line,2,-1,0,1.696460,54
69.872000,ori,-0.015708,0.000000,Line,2,-1,0,1.680752,54
70.44000,ori,-0.015708,0.000000,Line,2,-1,0,1.665044,54
70.231000,ori,-0.015708,0.000000,Line,2,-1,0,1.649336,54
70.434000,ori,-0.015708,0.000000,Line,2,-1,0,1.633628,54
70.652000,ori,-0.015708,0.000000,Line,2,-1,0,1.617920,54
70.995000,ori,-0.015708,0.000000,Line,2,-1,0,1.602212,54
71.697000,sel,0.000000,0.000000
72.119000,ori,0.015708,0.000000,Line,0,0,0,1.570273,54
72.665000,ori,0.015708,0.000000,Line,0,0,0,1.585981,54
73.523000,pos,1.000000,0.000000,Line,0,1,0,1.585981,54
73.959000,pos,1.000000,0.000000,Line,0,2,0,1.585981,54
75.207000,sel,1.000000,0.000000
76.3000,sel,2.000000,0.000000
76.674000,ori,-0.015708,0.000000,Line,2,-1,0,1.586504,54
77.828000,pos,-1.000000,0.000000,Line,2,-2,0,1.586504,54
80.933000,sel,0.000000,0.000000
83.241000,pos,-1.000000,0.000000,Line,0,1,0,1.585981,54
83.694000,pos,-1.000000,0.000000,Line,0,0,0,1.585981,54
85.488000,ori,0.015708,0.000000,Line,0,0,0,1.601689,54
85.847000,ori,0.015708,0.000000,Line,0,0,0,1.617397,54
86.190000,ori,0.015708,0.000000,Line,0,0,0,1.633105,54
86.424000,ori,0.015708,0.000000,Line,0,0,0,1.648813,54
86.658000,ori,0.015708,0.000000,Line,0,0,0,1.664521,54
86.876000,ori,0.015708,0.000000,Line,0,0,0,1.680229,54
87.63000,ori,0.015708,0.000000,Line,0,0,0,1.695937,54
87.282000,ori,0.015708,0.000000,Line,0,0,0,1.711645,54
87.687000,ori,0.015708,0.000000,Line,0,0,0,1.727353,54
88.62000,ori,0.015708,0.000000,Line,0,0,0,1.743061,54
88.421000,ori,0.015708,0.000000,Line,0,0,0,1.758769,54
88.748000,ori,0.015708,0.000000,Line,0,0,0,1.774477,54
89.91000,ori,0.015708,0.000000,Line,0,0,0,1.790184,54
89.388000,ori,0.015708,0.000000,Line,0,0,0,1.805892,54
89.731000,ori,0.015708,0.000000,Line,0,0,0,1.821600,54
90.43000,ori,0.015708,0.000000,Line,0,0,0,1.837308,54
90.386000,ori,0.015708,0.000000,Line,0,0,0,1.853016,54
90.683000,ori,0.015708,0.000000,Line,0,0,0,1.868724,54
91.41000,ori,0.015708,0.000000,Line,0,0,0,1.884432,54
91.353000,ori,0.015708,0.000000,Line,0,0,0,1.900140,54
91.697000,ori,0.015708,0.000000,Line,0,0,0,1.915848,54
92.55000,ori,0.015708,0.000000,Line,0,0,0,1.931556,54
92.367000,ori,0.015708,0.000000,Line,0,0,0,1.947264,54
92.757000,ori,0.015708,0.000000,Line,0,0,0,1.962972,54
93.116000,ori,0.015708,0.000000,Line,0,0,0,1.978680,54
93.444000,ori,0.015708,0.000000,Line,0,0,0,1.994388,54
93.771000,ori,0.015708,0.000000,Line,0,0,0,2.010096,54
94.177000,ori,0.015708,0.000000,Line,0,0,0,2.025804,54
94.645000,ori,0.015708,0.000000,Line,0,0,0,2.041512,54
95.456000,ori,0.015708,0.000000,Line,0,0,0,2.057220,54
96.96000,ori,0.015708,0.000000,Line,0,0,0,2.072928,54
97.188000,sel,1.000000,0.000000
98.46000,sel,2.000000,0.000000
98.420000,ori,-0.015708,0.000000,Line,2,-2,0,1.570796,54
98.779000,ori,-0.015708,0.000000,Line,2,-2,0,1.555088,54
99.606000,ori,0.015708,0.000000,Line,2,-2,0,1.570796,54
99.871000,ori,0.015708,0.000000,Line,2,-2,0,1.586504,54
101.119000,pos,1.000000,0.000000,Line,2,-1,0,1.586504,54
101.743000,pos,1.000000,0.000000,Line,2,0,0,1.586504,54
102.445000,pos,-1.000000,0.000000,Line,2,-1,0,1.586504,54
103.256000,ori,-0.015708,0.000000,Line,2,-1,0,1.570796,54
103.599000,ori,-0.015708,0.000000,Line,2,-1,0,1.555088,54
103.896000,ori,-0.015708,0.000000,Line,2,-1,0,1.539380,54
104.223000,ori,-0.015708,0.000000,Line,2,-1,0,1.523672,54
104.520000,ori,-0.015708,0.000000,Line,2,-1,0,1.507964,54
104.816000,ori,-0.015708,0.000000,Line,2,-1,0,1.492257,54
105.97000,ori,-0.015708,0.000000,Line,2,-1,0,1.476549,54
105.378000,ori,-0.015708,0.000000,Line,2,-1,0,1.460841,54
105.674000,ori,-0.015708,0.000000,Line,2,-1,0,1.445133,54
105.971000,ori,-0.015708,0.000000,Line,2,-1,0,1.429425,54
106.236000,ori,-0.015708,0.000000,Line,2,-1,0,1.413717,54
106.517000,ori,-0.015708,0.000000,Line,2,-1,0,1.398009,54
106.813000,ori,-0.015708,0.000000,Line,2,-1,0,1.382301,54
107.94000,ori,-0.015708,0.000000,Line,2,-1,0,1.366593,54
107.406000,ori,-0.015708,0.000000,Line,2,-1,0,1.350885,54
107.687000,ori,-0.015708,0.000000,Line,2,-1,0,1.335177,54
107.983000,ori,-0.015708,0.000000,Line,2,-1,0,1.319469,54
108.264000,ori,-0.015708,0.000000,Line,2,-1,0,1.303761,54
108.591000,ori,-0.015708,0.000000,Line,2,-1,0,1.288053,54
108.919000,ori,-0.015708,0.000000,Line,2,-1,0,1.272345,54
109.231000,ori,-0.015708,0.000000,Line,2,-1,0,1.256637,54
109.699000,ori,-0.015708,0.000000,Line,2,-1,0,1.240929,54
110.89000,ori,-0.015708,0.000000,Line,2,-1,0,1.225221,54
110.479000,ori,-0.015708,0.000000,Line,2,-1,0,1.209513,54
110.885000,ori,-0.015708,0.000000,Line,2,-1,0,1.193805,54
111.275000,ori,-0.015708,0.000000,Line,2,-1,0,1.178097,54
111.665000,ori,-0.015708,0.000000,Line,2,-1,0,1.162389,54
112.70000,ori,-0.015708,0.000000,Line,2,-1,0,1.146681,54
112.523000,ori,-0.015708,0.000000,Line,2,-1,0,1.130973,54
113.271000,ori,-0.015708,0.000000,Line,2,-1,0,1.115265,54
113.786000,ori,-0.015708,0.000000,Line,2,-1,0,1.099557,54
114.816000,ori,-0.015708,0.000000,Line,2,-1,0,1.083849,54
119.480000,sel,0.000000,0.000000
121.446000,ori,0.015708,0.000000,Line,0,0,0,2.088636,54
122.460000,sel,1.000000,0.000000
123.162000,ori,-0.015708,0.000000,Line,1,0,28,-0.015708,31
124.800000,ori,0.015708,0.000000,Line,1,0,28,0.000000,31
125.892000,sel,2.000000,0.000000
126.687000,ori,-0.015708,0.000000,Line,2,-1,0,1.068142,54
128.154000,ori,-0.015708,0.000000,Line,2,-1,0,1.052434,54
129.121000,ori,0.015708,0.000000,Line,2,-1,0,1.068142,54
134.300000,sel,0.000000,0.000000
134.753000,sel,1.000000,0.000000
135.470000,pos,-1.000000,0.000000,Line,1,-1,28,0.000000,31
136.593000,pos,1.000000,0.000000,Line,1,0,28,0.000000,31
137.451000,pos,-1.000000,0.000000,Line,1,-1,28,0.000000,31
138.512000,pos,1.000000,0.000000,Line,1,0,28,0.000000,31
143.613000,sel,2.000000,0.000000
146.359000,sel,0.000000,0.000000
147.981000,sel,1.000000,0.000000
148.902000,sel,2.000000,0.000000
149.744000,pos,0.000000,-1.000000,Line,2,-1,0,1.068142,54
150.696000,pos,0.000000,1.000000,Line,2,-1,0,1.068142,54
153.535000,length,-1.000000,0.000000,Line,2,-1,0,1.068142,53
155.1000,pos,0.000000,-1.000000,Line,2,-1,0,1.068142,53
157.217000,pos,0.000000,1.000000,Line,2,-1,0,1.068142,53
158.246000,pos,0.000000,-1.000000,Line,2,-1,0,1.068142,53
161.257000,length,1.000000,0.000000,Line,2,-1,0,1.068142,54
166.998000,pos,0.000000,1.000000,Line,2,-1,0,1.068142,54
169.728000,pos,0.000000,-1.000000,Line,2,-1,0,1.068142,54
171.366000,pos,-1.000000,0.000000,Line,2,-2,0,1.068142,54
172.21000,pos,0.000000,1.000000,Line,2,-2,0,1.068142,54
173.519000,pos,1.000000,0.000000,Line,2,-1,0,1.068142,54
174.80000,pos,1.000000,0.000000,Line,2,0,0,1.068142,54
177.871000,length,-1.000000,0.000000,Line,2,0,0,1.068142,53
179.727000,pos,-1.000000,0.000000,Line,2,-1,0,1.068142,53
180.414000,pos,1.000000,0.000000,Line,2,0,0,1.068142,53
181.116000,pos,0.000000,-1.000000,Line,2,0,0,1.068142,53
181.646000,pos,0.000000,1.000000,Line,2,0,0,1.068142,53
193.440000,sel,0.000000,0.000000
193.752000,sel,1.000000,0.000000
194.204000,sel,2.000000,0.000000
195.140000,pos,1.000000,0.000000,Line,2,1,0,1.068142,53
196.934000,pos,-1.000000,0.000000,Line,2,0,0,1.068142,53
205.733000,sel,0.000000,0.000000
206.138000,sel,1.000000,0.000000
206.934000,del,0.000000,0.000000,Line,1,0,28,0.000000,31
206.949000,pos,-1.000000,-0.500000,Line,1,-1,27,0.000000,31
