0.0,ver,1.000000,0.000000
0.31000,lc:adehilmpambncodp,10.000000,8.000000
0.94000,ori,0.000000,0.000000,Line,0,-7,0,1.853016,49
0.94000,ori,0.000000,0.000000,Line,1,7,0,1.288053,49
0.94000,ori,0.000000,0.000000,Line,2,-4,-9,0.015708,19
0.109000,lc:adehilmpambncodp,100.000000,8.000000
0.702000,sel,1.000000,0.000000
1.217000,sel,2.000000,0.000000
1.810000,pos,-1.000000,0.000000,Line,2,-5,-9,0.015708,19
