0.0,ver,1.000000,0.000000
0.15000,lc:adehilmpambncodp,10.000000,8.000000
0.78000,ori,0.000000,0.000000,Arc,0,0,-11,1.570796,21
0.78000,ori,0.000000,0.000000,Arc,1,0,-11,4.721593,21
0.93000,lc:adehilmpambncodp,100.000000,8.000000
1.76000,pos,0.000000,-1.000000,Arc,0,0,-12,1.570796,21
2.402000,sel,1.000000,0.000000
2.886000,pos,0.000000,-1.000000,Arc,1,0,-12,4.721593,21
4.399000,sel,0.000000,0.000000
4.758000,pos,0.000000,-1.000000,Arc,0,0,-13,1.570796,21
5.742000,pos,0.000000,1.000000,Arc,0,0,-12,1.570796,21
