0.0,ver,1.000000,0.000000
0.16000,lc:adehilmpambncodp,10.000000,8.000000
0.78000,ori,0.000000,0.000000,Line,0,-7,-4,1.570796,39
0.78000,ori,0.000000,0.000000,Arc,1,0,-9,4.746137,14
0.78000,ori,0.000000,0.000000,Line,2,7,-17,1.570796,14
0.94000,lc:adehilmpambncodp,100.000000,8.000000
1.201000,sel,1.000000,0.000000
1.623000,sel,2.000000,0.000000
3.746000,length,1.000000,0.000000,Line,2,7,-17,1.570796,15
4.495000,pos,0.000000,1.000000,Line,2,7,-16,1.570796,15
