0.0,ver,1.000000,0.000000
0.16000,lc:adehilmpambncodp,10.000000,8.000000
0.78000,ori,0.000000,0.000000,Line,0,3,-15,2.072715,18
0.78000,ori,0.000000,0.000000,Line,2,-5,-3,1.570796,41
0.78000,ori,0.000000,0.000000,Line,3,0,-8,0.776194,17
0.94000,lc:adehilmpambncodp,100.000000,8.000000
1.373000,pos,0.000000,-1.000000,Line,0,3,-16,2.072715,18
2.840000,pos,0.000000,1.000000,Line,0,3,-15,2.072715,18
3.682000,pos,-1.000000,0.000000,Line,0,2,-15,2.072715,18
4.244000,pos,1.000000,0.000000,Line,0,3,-15,2.072715,18
5.24000,sel,2.000000,0.000000
5.757000,sel,3.000000,0.000000
7.832000,length,-1.000000,0.000000,Line,3,0,-8,0.776194,16
9.251000,pos,1.000000,0.000000,Line,3,1,-8,0.776194,16
10.593000,pos,0.000000,1.000000,Line,3,1,-7,0.776194,16
