0.0,ver,1.000000,0.000000
0.16000,lc:adehilmpambncodp,10.000000,8.000000
0.78000,ori,0.000000,0.000000,Line,0,10,-12,1.604544,22
0.78000,ori,0.000000,0.000000,Arc,1,0,-12,1.521709,18
0.78000,ori,0.000000,0.000000,Arc,2,0,-12,4.657166,18
0.109000,lc:adehilmpambncodp,100.000000,8.000000
2.106000,sel,1.000000,0.000000
2.792000,pos,0.000000,-1.000000,Arc,1,0,-13,1.521709,18
3.682000,sel,2.000000,0.000000
4.337000,pos,0.000000,-1.000000,Arc,2,0,-13,4.657166,18
5.179000,sel,0.000000,0.000000
5.522000,pos,0.000000,-1.000000,Line,0,10,-13,1.604544,22
11.731000,sel,1.000000,0.000000
12.558000,pos,0.000000,-1.000000,Arc,1,0,-14,1.521709,18
13.447000,pos,0.000000,1.000000,Arc,1,0,-13,1.521709,18
