0.0,ver,1.000000,0.000000
0.16000,lc:adehilmpambncodp,10.000000,8.000000
0.62000,ori,0.000000,0.000000,Line,0,6,0,1.571000,52
0.62000,ori,0.000000,0.000000,Arc,2,5,-10,6.297592,29
0.78000,lc:adehilmpambncodp,100.000000,8.000000
3.66000,length,-1.000000,0.000000,Line,0,6,0,1.571000,51
3.300000,length,-1.000000,0.000000,Line,0,6,0,1.571000,50
3.547000,length,-1.000000,0.000000,Line,0,6,0,1.571000,49
3.973000,pos,1.000000,0.000000,Line,0,7,0,1.571000,49
4.402000,pos,0.000000,-1.000000,Line,0,7,-1,1.571000,49
5.366000,pos,1.000000,0.000000,Line,0,8,-1,1.571000,49
5.772000,pos,0.000000,1.000000,Line,0,8,0,1.571000,49
6.151000,length,-1.000000,0.000000,Line,0,8,0,1.571000,48
7.143000,length,-1.000000,0.000000,Line,0,8,0,1.571000,47
7.986000,length,-1.000000,0.000000,Line,0,8,0,1.571000,46
8.679000,pos,0.000000,-1.000000,Line,0,8,-1,1.571000,46
9.254000,pos,0.000000,-1.000000,Line,0,8,-2,1.571000,46
9.747000,pos,0.000000,1.000000,Line,0,8,-1,1.571000,46
10.820000,sel,2.000000,0.000000
12.15000,length,-1.000000,0.000000,Arc,2,5,-10,6.297592,28
12.234000,length,-1.000000,0.000000,Arc,2,5,-10,6.297592,27
12.416000,length,-1.000000,0.000000,Arc,2,5,-10,6.297592,26
12.590000,length,-1.000000,0.000000,Arc,2,5,-10,6.297592,25
12.843000,length,-1.000000,0.000000,Arc,2,5,-10,6.297592,24
13.81000,length,-1.000000,0.000000,Arc,2,5,-10,6.297592,23
13.318000,length,-1.000000,0.000000,Arc,2,5,-10,6.297592,22
13.571000,pos,0.000000,-1.000000,Arc,2,5,-11,6.297592,22
14.332000,pos,0.000000,-1.000000,Arc,2,5,-12,6.297592,22
14.897000,pos,1.000000,0.000000,Arc,2,6,-12,6.297592,22
15.270000,pos,0.000000,1.000000,Arc,2,6,-11,6.297592,22
16.66000,pos,0.000000,-1.000000,Arc,2,6,-12,6.297592,22
16.559000,pos,1.000000,0.000000,Arc,2,7,-12,6.297592,22
17.45000,pos,0.000000,1.000000,Arc,2,7,-11,6.297592,22
19.995000,sel,0.000000,0.000000
21.457000,length,1.000000,0.000000,Line,0,8,-1,1.571000,47
22.518000,pos,0.000000,1.000000,Line,0,8,0,1.571000,47
23.377000,pos,1.000000,0.000000,Line,0,9,0,1.571000,47
24.875000,pos,-1.000000,0.000000,Line,0,8,0,1.571000,47
