0.16000,ver,1.000000,0.000000
0.31000,lc:adehilmpambncodp,10.000000,8.000000
0.106000,ori,0.000000,0.000000,Line,0,12,0,1.561437,48
0.106000,ori,0.000000,0.000000,Line,1,6,11,1.171806,28
0.106000,ori,0.000000,0.000000,Line,2,-13,0,1.555301,48
0.106000,ori,0.000000,0.000000,Line,3,-7,11,2.000000,28
0.106000,ori,0.000000,0.000000,Line,4,-21,0,1.570796,47
0.116000,lc:adehilmpambncodp,100.000000,8.000000
1.814000,sel,1.000000,0.000000
2.7000,sel,2.000000,0.000000
2.226000,sel,3.000000,0.000000
2.818000,sel,4.000000,0.000000
4.274000,pos,1.000000,0.000000,Line,4,-20,0,1.570796,47
4.443000,pos,1.000000,0.000000,Line,4,-19,0,1.570796,47
4.629000,pos,1.000000,0.000000,Line,4,-18,0,1.570796,47
4.776000,pos,1.000000,0.000000,Line,4,-17,0,1.570796,47
5.377000,pos,1.000000,0.000000,Line,4,-16,0,1.570796,47
5.547000,pos,1.000000,0.000000,Line,4,-15,0,1.570796,47
5.733000,pos,1.000000,0.000000,Line,4,-14,0,1.570796,47
5.918000,pos,1.000000,0.000000,Line,4,-13,0,1.570796,47
6.102000,pos,1.000000,0.000000,Line,4,-12,0,1.570796,47
6.264000,pos,1.000000,0.000000,Line,4,-11,0,1.570796,47
6.449000,pos,1.000000,0.000000,Line,4,-10,0,1.570796,47
6.619000,pos,1.000000,0.000000,Line,4,-9,0,1.570796,47
6.782000,pos,1.000000,0.000000,Line,4,-8,0,1.570796,47
6.967000,pos,1.000000,0.000000,Line,4,-7,0,1.570796,47
7.153000,pos,1.000000,0.000000,Line,4,-6,0,1.570796,47
7.338000,pos,1.000000,0.000000,Line,4,-5,0,1.570796,47
7.754000,pos,-1.000000,0.000000,Line,4,-6,0,1.570796,47
8.71000,pos,0.000000,-1.000000,Line,4,-6,-1,1.570796,47
8.372000,pos,1.000000,0.000000,Line,4,-5,-1,1.570796,47
8.558000,pos,1.000000,0.000000,Line,4,-4,-1,1.570796,47
8.741000,pos,1.000000,0.000000,Line,4,-3,-1,1.570796,47
9.58000,pos,0.000000,-1.000000,Line,4,-3,-2,1.570796,47
9.476000,pos,1.000000,0.000000,Line,4,-2,-2,1.570796,47
9.975000,pos,0.000000,1.000000,Line,4,-2,-1,1.570796,47
10.246000,pos,1.000000,0.000000,Line,4,-1,-1,1.570796,47
10.679000,pos,0.000000,1.000000,Line,4,-1,0,1.570796,47
11.49000,pos,1.000000,0.000000,Line,4,0,0,1.570796,47
13.591000,length,-1.000000,0.000000,Line,4,0,0,1.570796,46
13.794000,length,-1.000000,0.000000,Line,4,0,0,1.570796,45
13.966000,length,-1.000000,0.000000,Line,4,0,0,1.570796,44
14.143000,length,-1.000000,0.000000,Line,4,0,0,1.570796,43
14.314000,length,-1.000000,0.000000,Line,4,0,0,1.570796,42
14.486000,length,-1.000000,0.000000,Line,4,0,0,1.570796,41
14.657000,length,-1.000000,0.000000,Line,4,0,0,1.570796,40
14.845000,length,-1.000000,0.000000,Line,4,0,0,1.570796,39
15.16000,length,-1.000000,0.000000,Line,4,0,0,1.570796,38
15.199000,pos,1.000000,0.000000,Line,4,1,0,1.570796,38
15.377000,pos,1.000000,0.000000,Line,4,2,0,1.570796,38
15.746000,pos,1.000000,0.000000,Line,4,3,0,1.570796,38
16.16000,pos,0.000000,-1.000000,Line,4,3,-1,1.570796,38
16.200000,pos,0.000000,-1.000000,Line,4,3,-2,1.570796,38
16.380000,pos,0.000000,-1.000000,Line,4,3,-3,1.570796,38
16.550000,pos,0.000000,-1.000000,Line,4,3,-4,1.570796,38
16.703000,pos,0.000000,-1.000000,Line,4,3,-5,1.570796,38
16.919000,length,-1.000000,0.000000,Line,4,3,-5,1.570796,37
17.422000,length,-1.000000,0.000000,Line,4,3,-5,1.570796,36
17.585000,length,-1.000000,0.000000,Line,4,3,-5,1.570796,35
17.753000,length,-1.000000,0.000000,Line,4,3,-5,1.570796,34
17.922000,length,-1.000000,0.000000,Line,4,3,-5,1.570796,33
18.107000,length,-1.000000,0.000000,Line,4,3,-5,1.570796,32
18.269000,length,-1.000000,0.000000,Line,4,3,-5,1.570796,31
18.441000,length,-1.000000,0.000000,Line,4,3,-5,1.570796,30
19.663000,pos,0.000000,-1.500000,Line,4,3,-6,1.570796,30
19.681000,pos,-0.500000,-7.000000,Line,4,2,-13,1.570796,30
19.697000,pos,0.000000,-1.000000,Line,4,2,-14,1.570796,30
19.713000,pos,0.000000,-0.500000,Line,4,2,-15,1.570796,30
19.728000,pos,0.000000,-0.500000,Line,4,2,-15,1.570796,30
20.29000,pos,3.000000,3.500000,Line,4,5,-12,1.570796,30
20.76000,pos,0.000000,0.500000,Line,4,5,-11,1.570796,30
20.461000,pos,-0.500000,0.000000,Line,4,5,-11,1.570796,30
20.477000,pos,-3.500000,0.000000,Line,4,1,-11,1.570796,30
20.498000,pos,-1.500000,0.000000,Line,4,0,-11,1.570796,30
20.778000,pos,3.500000,2.000000,Line,4,3,-9,1.570796,30
20.799000,pos,1.500000,1.000000,Line,4,5,-8,1.570796,30
21.982000,length,-1.000000,0.000000,Line,4,5,-8,1.570796,29
22.306000,pos,0.000000,-1.000000,Line,4,5,-9,1.570796,29
22.568000,length,-1.000000,0.000000,Line,4,5,-9,1.570796,28
22.969000,pos,-1.000000,0.000000,Line,4,4,-9,1.570796,28
23.471000,length,-1.000000,0.000000,Line,4,4,-9,1.570796,27
24.288000,pos,0.000000,-1.000000,Line,4,4,-10,1.570796,27
25.711000,pos,1.000000,0.000000,Line,4,5,-10,1.570796,27
26.326000,pos,-1.000000,0.000000,Line,4,4,-10,1.570796,27
27.184000,length,1.000000,0.000000,Line,4,4,-10,1.570796,28
27.568000,pos,0.000000,1.000000,Line,4,4,-9,1.570796,28
32.149000,pos,0.000000,1.000000,Line,4,4,-8,1.570796,28
32.351000,pos,0.000000,1.000000,Line,4,4,-7,1.570796,28
32.503000,pos,0.000000,1.000000,Line,4,4,-6,1.570796,28
32.682000,pos,0.000000,1.000000,Line,4,4,-5,1.570796,28
32.835000,pos,0.000000,1.000000,Line,4,4,-4,1.570796,28
32.983000,pos,0.000000,1.000000,Line,4,4,-3,1.570796,28
33.137000,pos,0.000000,1.000000,Line,4,4,-2,1.570796,28
33.285000,pos,0.000000,1.000000,Line,4,4,-1,1.570796,28
33.438000,pos,0.000000,1.000000,Line,4,4,0,1.570796,28
33.570000,pos,0.000000,1.000000,Line,4,4,0,1.570796,28
33.739000,pos,0.000000,1.000000,Line,4,4,1,1.570796,28
33.908000,pos,0.000000,1.000000,Line,4,4,2,1.570796,28
34.40000,pos,0.000000,1.000000,Line,4,4,3,1.570796,28
34.209000,pos,0.000000,1.000000,Line,4,4,4,1.570796,28
34.373000,pos,0.000000,1.000000,Line,4,4,5,1.570796,28
34.527000,pos,0.000000,1.000000,Line,4,4,6,1.570796,28
34.742000,ori,0.015708,0.000000,Line,4,4,6,1.586504,28
34.958000,ori,0.015708,0.000000,Line,4,4,6,1.602212,28
35.174000,ori,0.015708,0.000000,Line,4,4,6,1.617920,28
35.359000,ori,0.015708,0.000000,Line,4,4,6,1.633628,28
35.760000,ori,0.015708,0.000000,Line,4,4,6,1.649336,28
36.176000,ori,0.015708,0.000000,Line,4,4,6,1.665044,28
36.378000,pos,-1.000000,0.000000,Line,4,3,6,1.665044,28
36.500000,ori,0.015708,0.000000,Line,4,3,6,1.680752,28
36.578000,pos,-1.000000,0.000000,Line,4,2,6,1.680752,28
36.763000,ori,0.015708,0.000000,Line,4,2,6,1.696460,28
36.964000,ori,0.015708,0.000000,Line,4,2,6,1.712168,28
37.180000,ori,0.015708,0.000000,Line,4,2,6,1.727876,28
37.396000,ori,0.015708,0.000000,Line,4,2,6,1.743584,28
37.661000,ori,0.015708,0.000000,Line,4,2,6,1.759292,28
37.880000,ori,0.015708,0.000000,Line,4,2,6,1.775000,28
38.129000,ori,0.015708,0.000000,Line,4,2,6,1.790707,28
38.353000,ori,0.015708,0.000000,Line,4,2,6,1.806415,28
38.556000,ori,0.015708,0.000000,Line,4,2,6,1.822123,28
38.774000,ori,0.015708,0.000000,Line,4,2,6,1.837831,28
38.915000,ori,0.015708,0.000000,Line,4,2,6,1.853539,28
39.180000,ori,0.015708,0.000000,Line,4,2,6,1.869247,28
39.409000,ori,0.015708,0.000000,Line,4,2,6,1.884955,28
39.642000,ori,0.015708,0.000000,Line,4,2,6,1.900663,28
39.842000,ori,0.015708,0.000000,Line,4,2,6,1.916371,28
40.195000,ori,0.015708,0.000000,Line,4,2,6,1.932079,28
40.474000,ori,0.015708,0.000000,Line,4,2,6,1.947787,28
40.812000,ori,0.015708,0.000000,Line,4,2,6,1.963495,28
41.77000,pos,0.000000,1.000000,Line,4,2,7,1.963495,28
41.276000,pos,0.000000,1.000000,Line,4,2,8,1.963495,28
41.447000,pos,0.000000,1.000000,Line,4,2,9,1.963495,28
41.616000,pos,0.000000,1.000000,Line,4,2,10,1.963495,28
41.863000,pos,-1.000000,0.000000,Line,4,1,10,1.963495,28
42.333000,pos,-1.000000,0.000000,Line,4,0,10,1.963495,28
42.618000,pos,0.000000,1.000000,Line,4,0,11,1.963495,28
42.966000,pos,0.000000,1.000000,Line,4,0,12,1.963495,28
43.237000,pos,-1.000000,0.000000,Line,4,-1,12,1.963495,28
43.670000,ori,0.015708,0.000000,Line,4,-1,12,1.979203,28
43.969000,ori,0.015708,0.000000,Line,4,-1,12,1.994911,28
44.975000,length,-1.000000,0.000000,Line,4,-1,12,1.994911,27
45.159000,length,-1.000000,0.000000,Line,4,-1,12,1.994911,26
45.343000,length,-1.000000,0.000000,Line,4,-1,12,1.994911,25
45.514000,length,-1.000000,0.000000,Line,4,-1,12,1.994911,24
45.713000,length,-1.000000,0.000000,Line,4,-1,12,1.994911,23
45.930000,length,-1.000000,0.000000,Line,4,-1,12,1.994911,22
46.176000,pos,0.000000,1.000000,Line,4,-1,13,1.994911,22
46.362000,pos,0.000000,1.000000,Line,4,-1,14,1.994911,22
46.562000,pos,0.000000,1.000000,Line,4,-1,15,1.994911,22
46.832000,pos,-1.000000,0.000000,Line,4,-2,15,1.994911,22
47.201000,pos,0.000000,1.000000,Line,4,-2,16,1.994911,22
47.620000,length,-1.000000,0.000000,Line,4,-2,16,1.994911,21
47.882000,length,-1.000000,0.000000,Line,4,-2,16,1.994911,20
48.67000,length,-1.000000,0.000000,Line,4,-2,16,1.994911,19
48.236000,length,-1.000000,0.000000,Line,4,-2,16,1.994911,18
48.405000,length,-1.000000,0.000000,Line,4,-2,16,1.994911,17
50.220000,length,1.000000,0.000000,Line,4,-2,16,1.994911,18
50.630000,length,1.000000,0.000000,Line,4,-2,16,1.994911,19
50.958000,pos,0.000000,-1.000000,Line,4,-2,15,1.994911,19
51.829000,pos,1.000000,0.000000,Line,4,-1,15,1.994911,19
52.180000,pos,0.000000,-1.000000,Line,4,-1,14,1.994911,19
54.223000,length,1.000000,0.000000,Line,4,-1,14,1.994911,20
55.674000,pos,1.000000,0.000000,Line,4,0,14,1.994911,20
56.143000,pos,-1.000000,0.000000,Line,4,-1,14,1.994911,20
59.438000,pos,0.000000,1.000000,Line,4,-1,15,1.994911,20
60.589000,pos,-1.000000,0.000000,Line,4,-2,15,1.994911,20
61.575000,pos,1.000000,0.000000,Line,4,-1,15,1.994911,20
