0.0,ver,1.000000,0.000000
0.15000,lc:adehilmpambncodp,10.000000,8.000000
0.78000,ori,0.000000,0.000000,Line,0,0,-13,1.582913,22
0.78000,ori,0.000000,0.000000,Line,1,5,11,1.176715,27
0.78000,ori,0.000000,0.000000,Line,2,-12,9,1.963495,26
0.78000,ori,0.000000,0.000000,Line,3,-5,10,1.955208,29
0.78000,lc:adehilmpambncodp,100.000000,8.000000
1.544000,sel,1.000000,0.000000
1.872000,sel,2.000000,0.000000
2.792000,pos,0.000000,-1.000000,Line,2,-12,8,1.963495,26
2.995000,pos,0.000000,-1.000000,Line,2,-12,7,1.963495,26
3.166000,pos,0.000000,-1.000000,Line,2,-12,6,1.963495,26
3.322000,pos,0.000000,-1.000000,Line,2,-12,5,1.963495,26
3.525000,pos,0.000000,-1.000000,Line,2,-12,4,1.963495,26
3.744000,pos,0.000000,-1.000000,Line,2,-12,3,1.963495,26
3.915000,pos,0.000000,-1.000000,Line,2,-12,2,1.963495,26
4.71000,pos,0.000000,-1.000000,Line,2,-12,1,1.963495,26
4.227000,pos,0.000000,-1.000000,Line,2,-12,0,1.963495,26
4.383000,pos,0.000000,-1.000000,Line,2,-12,-1,1.963495,26
4.555000,pos,0.000000,-1.000000,Line,2,-12,-2,1.963495,26
4.695000,pos,0.000000,-1.000000,Line,2,-12,-3,1.963495,26
4.882000,pos,0.000000,-1.000000,Line,2,-12,-4,1.963495,26
5.54000,pos,0.000000,-1.000000,Line,2,-12,-5,1.963495,26
5.241000,pos,0.000000,-1.000000,Line,2,-12,-6,1.963495,26
5.397000,pos,0.000000,-1.000000,Line,2,-12,-7,1.963495,26
5.600000,pos,0.000000,-1.000000,Line,2,-12,-8,1.963495,26
5.772000,pos,0.000000,-1.000000,Line,2,-12,-9,1.963495,26
5.959000,pos,0.000000,-1.000000,Line,2,-12,-10,1.963495,26
6.162000,pos,0.000000,-1.000000,Line,2,-12,-11,1.963495,26
6.988000,pos,0.000000,-1.000000,Line,2,-12,-12,1.963495,26
7.207000,pos,0.000000,-1.000000,Line,2,-12,-13,1.963495,26
9.79000,ori,-0.015708,0.000000,Line,2,-12,-13,1.947787,26
9.266000,ori,-0.015708,0.000000,Line,2,-12,-13,1.932079,26
9.453000,ori,-0.015708,0.000000,Line,2,-12,-13,1.916371,26
9.640000,ori,-0.015708,0.000000,Line,2,-12,-13,1.900663,26
9.796000,ori,-0.015708,0.000000,Line,2,-12,-13,1.884955,26
9.999000,ori,-0.015708,0.000000,Line,2,-12,-13,1.869247,26
10.62000,pos,1.000000,0.000000,Line,2,-11,-13,1.869247,26
10.202000,ori,-0.015708,0.000000,Line,2,-11,-13,1.853539,26
10.249000,pos,1.000000,0.000000,Line,2,-10,-13,1.853539,26
10.420000,ori,-0.015708,0.000000,Line,2,-10,-13,1.837831,26
10.436000,pos,1.000000,0.000000,Line,2,-9,-13,1.837831,26
10.623000,ori,-0.015708,0.000000,Line,2,-9,-13,1.822123,26
10.842000,ori,-0.015708,0.000000,Line,2,-9,-13,1.806415,26
11.44000,ori,-0.015708,0.000000,Line,2,-9,-13,1.790707,26
11.232000,ori,-0.015708,0.000000,Line,2,-9,-13,1.774999,26
11.419000,ori,-0.015708,0.000000,Line,2,-9,-13,1.759291,26
11.606000,ori,-0.015708,0.000000,Line,2,-9,-13,1.743584,26
11.809000,ori,-0.015708,0.000000,Line,2,-9,-13,1.727876,26
12.12000,ori,-0.015708,0.000000,Line,2,-9,-13,1.712168,26
12.230000,ori,-0.015708,0.000000,Line,2,-9,-13,1.696460,26
12.464000,ori,-0.015708,0.000000,Line,2,-9,-13,1.680752,26
12.495000,pos,1.000000,0.000000,Line,2,-8,-13,1.680752,26
12.636000,ori,-0.015708,0.000000,Line,2,-8,-13,1.665044,26
12.838000,ori,-0.015708,0.000000,Line,2,-8,-13,1.649336,26
13.41000,ori,-0.015708,0.000000,Line,2,-8,-13,1.633628,26
13.306000,ori,-0.015708,0.000000,Line,2,-8,-13,1.617920,26
13.603000,ori,-0.015708,0.000000,Line,2,-8,-13,1.602212,26
13.868000,pos,1.000000,0.000000,Line,2,-7,-13,1.602212,26
14.40000,pos,1.000000,0.000000,Line,2,-6,-13,1.602212,26
14.430000,pos,1.000000,0.000000,Line,2,-5,-13,1.602212,26
15.22000,pos,1.000000,0.000000,Line,2,-4,-13,1.602212,26
15.553000,ori,-0.015708,0.000000,Line,2,-4,-13,1.586504,26
15.865000,pos,1.000000,0.000000,Line,2,-3,-13,1.586504,26
16.348000,pos,-1.000000,0.000000,Line,2,-4,-13,1.586504,26
16.894000,pos,-1.000000,0.000000,Line,2,-5,-13,1.586504,26
17.518000,pos,1.000000,0.000000,Line,2,-4,-13,1.586504,26
18.142000,ori,-0.015708,0.000000,Line,2,-4,-13,1.570796,26
18.782000,pos,-1.000000,0.000000,Line,2,-5,-13,1.570796,26
19.546000,pos,-1.000000,0.000000,Line,2,-6,-13,1.570796,26
20.61000,pos,-1.000000,0.000000,Line,2,-7,-13,1.570796,26
20.935000,length,-1.000000,0.000000,Line,2,-7,-13,1.570796,25
21.122000,length,-1.000000,0.000000,Line,2,-7,-13,1.570796,24
21.294000,length,-1.000000,0.000000,Line,2,-7,-13,1.570796,23
21.762000,length,-1.000000,0.000000,Line,2,-7,-13,1.570796,22
23.727000,pos,-1.000000,0.000000,Line,2,-8,-13,1.570796,22
24.694000,pos,1.000000,0.000000,Line,2,-7,-13,1.570796,22
