0.0,ver,1.000000,0.000000
0.15000,lc:adehilmpambncodp,10.000000,8.000000
0.78000,ori,0.000000,0.000000,Line,0,-9,0,1.205553,50
0.78000,ori,0.000000,0.000000,Line,1,9,0,1.905049,50
0.78000,ori,0.000000,0.000000,Line,2,-1,-1,0.000000,18
0.78000,ori,0.000000,0.000000,Line,3,21,-16,1.052434,15
0.93000,lc:adehilmpambncodp,100.000000,8.000000
0.967000,sel,1.000000,0.000000
1.435000,sel,2.000000,0.000000
1.919000,sel,3.000000,0.000000
3.89000,del,0.000000,0.000000,Line,3,21,-16,1.052434,15
7.160000,add,2.000000,5.000000
8.34000,pos,0.000000,-0.500000,Arc,4,0,0,1.570796,39
8.65000,pos,0.000000,-0.500000,Arc,4,0,-1,1.570796,39
8.81000,pos,0.000000,-0.500000,Arc,4,0,-1,1.570796,39
8.96000,pos,1.000000,-1.000000,Arc,4,1,-2,1.570796,39
8.112000,pos,2.000000,-2.000000,Arc,4,3,-4,1.570796,39
8.127000,pos,6.000000,-2.500000,Arc,4,9,-7,1.570796,39
8.143000,pos,2.500000,-1.500000,Arc,4,11,-8,1.570796,39
8.159000,pos,1.500000,-1.000000,Arc,4,13,-9,1.570796,39
8.174000,pos,1.000000,0.000000,Arc,4,14,-9,1.570796,39
8.190000,pos,1.000000,-1.000000,Arc,4,15,-10,1.570796,39
8.221000,pos,0.500000,-0.500000,Arc,4,15,-11,1.570796,39
8.237000,pos,0.500000,0.000000,Arc,4,16,-11,1.570796,39
8.268000,pos,0.500000,0.000000,Arc,4,16,-11,1.570796,39
8.299000,pos,0.000000,-0.500000,Arc,4,16,-11,1.570796,39
8.315000,pos,1.000000,0.000000,Arc,4,17,-11,1.570796,39
8.330000,pos,0.500000,-0.500000,Arc,4,18,-12,1.570796,39
8.346000,pos,1.000000,-0.500000,Arc,4,19,-12,1.570796,39
8.361000,pos,0.500000,0.000000,Arc,4,19,-12,1.570796,39
8.377000,pos,1.000000,-0.500000,Arc,4,20,-13,1.570796,39
8.393000,pos,0.500000,0.000000,Arc,4,21,-13,1.570796,39
8.408000,pos,0.500000,0.000000,Arc,4,21,-13,1.570796,39
8.424000,pos,0.500000,0.000000,Arc,4,22,-13,1.570796,39
8.439000,pos,0.500000,0.000000,Arc,4,22,-13,1.570796,39
8.471000,pos,0.500000,0.000000,Arc,4,23,-13,1.570796,39
8.486000,pos,0.500000,0.000000,Arc,4,23,-13,1.570796,39
8.502000,pos,0.500000,0.000000,Arc,4,24,-13,1.570796,39
8.627000,pos,0.500000,0.000000,Arc,4,24,-13,1.570796,39
8.689000,pos,0.500000,0.000000,Arc,4,25,-13,1.570796,39
8.705000,pos,0.500000,0.000000,Arc,4,25,-13,1.570796,39
8.720000,pos,0.500000,0.000000,Arc,4,26,-13,1.570796,39
8.736000,pos,0.500000,0.000000,Arc,4,26,-13,1.570796,39
9.500000,length,-1.000000,0.000000,Arc,4,26,-13,1.570796,38
9.656000,length,-1.000000,0.000000,Arc,4,26,-13,1.570796,37
10.109000,length,-1.000000,0.000000,Arc,4,26,-13,1.570796,36
10.249000,length,-1.000000,0.000000,Arc,4,26,-13,1.570796,35
10.405000,length,-1.000000,0.000000,Arc,4,26,-13,1.570796,34
10.717000,length,-1.000000,0.000000,Arc,4,26,-13,1.570796,33
10.904000,length,-1.000000,0.000000,Arc,4,26,-13,1.570796,32
11.60000,length,-1.000000,0.000000,Arc,4,26,-13,1.570796,31
11.232000,length,-1.000000,0.000000,Arc,4,26,-13,1.570796,30
11.388000,length,-1.000000,0.000000,Arc,4,26,-13,1.570796,29
11.528000,length,-1.000000,0.000000,Arc,4,26,-13,1.570796,28
11.669000,length,-1.000000,0.000000,Arc,4,26,-13,1.570796,27
11.825000,length,-1.000000,0.000000,Arc,4,26,-13,1.570796,26
11.981000,length,-1.000000,0.000000,Arc,4,26,-13,1.570796,25
12.152000,length,-1.000000,0.000000,Arc,4,26,-13,1.570796,24
12.371000,length,-1.000000,0.000000,Arc,4,26,-13,1.570796,23
12.558000,length,-1.000000,0.000000,Arc,4,26,-13,1.570796,22
12.714000,length,-1.000000,0.000000,Arc,4,26,-13,1.570796,21
12.887000,length,-1.000000,0.000000,Arc,4,26,-13,1.570796,20
13.75000,length,-1.000000,0.000000,Arc,4,26,-13,1.570796,19
13.231000,length,-1.000000,0.000000,Arc,4,26,-13,1.570796,18
13.402000,length,-1.000000,0.000000,Arc,4,26,-13,1.570796,17
13.605000,length,-1.000000,0.000000,Arc,4,26,-13,1.570796,16
13.823000,length,-1.000000,0.000000,Arc,4,26,-13,1.570796,15
13.933000,pos,-1.000000,0.000000,Arc,4,25,-13,1.570796,15
14.931000,ori,0.015708,0.000000,Arc,4,25,-13,1.586504,15
15.212000,ori,0.015708,0.000000,Arc,4,25,-13,1.602212,15
15.383000,ori,0.015708,0.000000,Arc,4,25,-13,1.617920,15
15.649000,ori,0.015708,0.000000,Arc,4,25,-13,1.633628,15
15.836000,ori,0.015708,0.000000,Arc,4,25,-13,1.649336,15
16.23000,ori,0.015708,0.000000,Arc,4,25,-13,1.665044,15
16.179000,ori,0.015708,0.000000,Arc,4,25,-13,1.680752,15
16.351000,ori,0.015708,0.000000,Arc,4,25,-13,1.696460,15
16.475000,ori,0.015708,0.000000,Arc,4,25,-13,1.712168,15
16.569000,pos,-1.000000,0.000000,Arc,4,24,-13,1.712168,15
16.787000,pos,-1.000000,0.000000,Arc,4,23,-13,1.712168,15
16.865000,ori,0.015708,0.000000,Arc,4,23,-13,1.727876,15
17.68000,ori,0.015708,0.000000,Arc,4,23,-13,1.743584,15
17.255000,ori,0.015708,0.000000,Arc,4,23,-13,1.759292,15
17.427000,ori,0.015708,0.000000,Arc,4,23,-13,1.775000,15
17.599000,ori,0.015708,0.000000,Arc,4,23,-13,1.790708,15
17.770000,ori,0.015708,0.000000,Arc,4,23,-13,1.806416,15
17.973000,ori,0.015708,0.000000,Arc,4,23,-13,1.822124,15
18.191000,ori,0.015708,0.000000,Arc,4,23,-13,1.837832,15
18.238000,pos,-1.000000,0.000000,Arc,4,22,-13,1.837832,15
18.410000,ori,0.015708,0.000000,Arc,4,22,-13,1.853540,15
18.519000,pos,-1.000000,0.000000,Arc,4,21,-13,1.853540,15
18.691000,pos,-1.000000,0.000000,Arc,4,20,-13,1.853540,15
18.925000,pos,0.000000,-1.000000,Arc,4,20,-14,1.853540,15
18.956000,ori,0.015708,0.000000,Arc,4,20,-14,1.869248,15
19.205000,ori,0.015708,0.000000,Arc,4,20,-14,1.884956,15
19.393000,pos,1.000000,0.000000,Arc,4,21,-14,1.884956,15
19.707000,pos,1.000000,0.000000,Arc,4,22,-14,1.884956,15
19.722000,ori,0.015708,0.000000,Arc,4,22,-14,1.900664,15
20.97000,ori,0.015708,0.000000,Arc,4,22,-14,1.916372,15
20.346000,ori,0.015708,0.000000,Arc,4,22,-14,1.932079,15
20.658000,ori,0.015708,0.000000,Arc,4,22,-14,1.947787,15
20.705000,pos,0.000000,-1.000000,Arc,4,22,-15,1.947787,15
21.126000,pos,0.000000,-1.000000,Arc,4,22,-16,1.947787,15
21.469000,ori,0.015708,0.000000,Arc,4,22,-16,1.963495,15
21.657000,ori,0.015708,0.000000,Arc,4,22,-16,1.979203,15
21.859000,ori,0.015708,0.000000,Arc,4,22,-16,1.994911,15
22.31000,ori,0.015708,0.000000,Arc,4,22,-16,2.010619,15
22.234000,ori,0.015708,0.000000,Arc,4,22,-16,2.026327,15
22.437000,ori,0.015708,0.000000,Arc,4,22,-16,2.042035,15
22.655000,ori,0.015708,0.000000,Arc,4,22,-16,2.057743,15
22.920000,ori,0.015708,0.000000,Arc,4,22,-16,2.073451,15
23.295000,ori,0.015708,0.000000,Arc,4,22,-16,2.089159,15
23.685000,ori,0.015708,0.000000,Arc,4,22,-16,2.104867,15
24.886000,ori,0.015708,0.000000,Arc,4,22,-16,2.120575,15
25.57000,length,-1.000000,0.000000,Arc,4,22,-16,2.120575,14
25.260000,ori,0.015708,0.000000,Arc,4,22,-16,2.136283,14
25.307000,length,-1.000000,0.000000,Arc,4,22,-16,2.136283,13
25.525000,ori,0.015708,0.000000,Arc,4,22,-16,2.151991,13
25.681000,length,-1.000000,0.000000,Arc,4,22,-16,2.151991,12
25.900000,ori,0.015708,0.000000,Arc,4,22,-16,2.167699,12
26.305000,ori,0.015708,0.000000,Arc,4,22,-16,2.183407,12
26.493000,ori,0.015708,0.000000,Arc,4,22,-16,2.199115,12
26.695000,ori,0.015708,0.000000,Arc,4,22,-16,2.214823,12
26.883000,ori,0.015708,0.000000,Arc,4,22,-16,2.230531,12
27.54000,ori,0.015708,0.000000,Arc,4,22,-16,2.246239,12
27.179000,pos,-1.000000,0.000000,Arc,4,21,-16,2.246239,12
27.366000,pos,-1.000000,0.000000,Arc,4,20,-16,2.246239,12
27.694000,pos,0.000000,-1.000000,Arc,4,20,-17,2.246239,12
28.6000,pos,-1.000000,0.000000,Arc,4,19,-17,2.246239,12
28.505000,pos,0.000000,1.000000,Arc,4,19,-16,2.246239,12
28.989000,ori,0.015708,0.000000,Arc,4,19,-16,2.261947,12
29.815000,length,-1.000000,0.000000,Arc,4,19,-16,2.261947,11
30.18000,length,-1.000000,0.000000,Arc,4,19,-16,2.261947,10
30.174000,length,-1.000000,0.000000,Arc,4,19,-16,2.261947,9
30.611000,pos,0.000000,-1.000000,Arc,4,19,-17,2.261947,9
31.17000,pos,1.000000,0.000000,Arc,4,20,-17,2.261947,9
31.438000,pos,0.000000,-1.000000,Arc,4,20,-18,2.261947,9
31.921000,pos,-1.000000,0.000000,Arc,4,19,-18,2.261947,9
33.466000,pos,-1.000000,0.000000,Arc,4,18,-18,2.261947,9
33.965000,pos,1.000000,0.000000,Arc,4,19,-18,2.261947,9
36.523000,ori,0.015708,0.000000,Arc,4,19,-18,2.277655,9
37.38000,ori,0.015708,0.000000,Arc,4,19,-18,2.293363,9
37.615000,ori,0.015708,0.000000,Arc,4,19,-18,2.309071,9
38.567000,pos,0.000000,1.000000,Arc,4,19,-17,2.309071,9
39.222000,pos,0.000000,-1.000000,Arc,4,19,-18,2.309071,9
