0.0,ver,1.000000,0.000000
0.30000,lc:adehilmpambncodp,10.000000,8.000000
0.130000,ori,0.000000,0.000000,Line,0,1,11,4.000000,29
0.130000,ori,0.000000,0.000000,Line,1,4,-9,2.082835,33
0.130000,ori,0.000000,0.000000,Line,2,1,-1,1.178097,47
0.130000,ori,0.000000,0.000000,Line,3,-9,0,1.567573,48
0.150000,lc:adehilmpambncodp,100.000000,8.000000
1.5000,sel,1.000000,0.000000
1.428000,sel,2.000000,0.000000
2.543000,ori,0.015708,0.000000,Line,2,1,-1,1.193805,47
2.763000,ori,0.015708,0.000000,Line,2,1,-1,1.209513,47
2.929000,ori,0.015708,0.000000,Line,2,1,-1,1.225221,47
3.102000,ori,0.015708,0.000000,Line,2,1,-1,1.240929,47
3.212000,pos,1.000000,0.000000,Line,2,2,-1,1.240929,47
3.304000,ori,0.015708,0.000000,Line,2,2,-1,1.256637,47
3.395000,pos,1.000000,0.000000,Line,2,3,-1,1.256637,47
3.488000,ori,0.015708,0.000000,Line,2,3,-1,1.272345,47
3.587000,pos,1.000000,0.000000,Line,2,4,-1,1.272345,47
3.667000,ori,0.015708,0.000000,Line,2,4,-1,1.288053,47
3.837000,ori,0.015708,0.000000,Line,2,4,-1,1.303761,47
4.2000,ori,0.015708,0.000000,Line,2,4,-1,1.319469,47
4.172000,ori,0.015708,0.000000,Line,2,4,-1,1.335177,47
4.318000,ori,0.015708,0.000000,Line,2,4,-1,1.350885,47
4.438000,ori,0.015708,0.000000,Line,2,4,-1,1.366593,47
4.700000,pos,1.000000,0.000000,Line,2,5,-1,1.366593,47
4.720000,ori,0.015708,0.000000,Line,2,5,-1,1.382301,47
4.850000,ori,0.015708,0.000000,Line,2,5,-1,1.398008,47
5.2000,pos,1.000000,0.000000,Line,2,6,-1,1.398008,47
5.92000,ori,0.015708,0.000000,Line,2,6,-1,1.413716,47
5.192000,pos,1.000000,0.000000,Line,2,7,-1,1.413716,47
5.292000,ori,0.015708,0.000000,Line,2,7,-1,1.429424,47
5.372000,pos,1.000000,0.000000,Line,2,8,-1,1.429424,47
5.538000,pos,1.000000,0.000000,Line,2,9,-1,1.429424,47
5.588000,ori,0.015708,0.000000,Line,2,9,-1,1.445132,47
5.678000,pos,1.000000,0.000000,Line,2,10,-1,1.445132,47
5.876000,ori,0.015708,0.000000,Line,2,10,-1,1.460840,47
5.906000,pos,1.000000,0.000000,Line,2,11,-1,1.460840,47
6.175000,ori,0.015708,0.000000,Line,2,11,-1,1.476548,47
6.429000,ori,0.015708,0.000000,Line,2,11,-1,1.492256,47
6.622000,ori,0.015708,0.000000,Line,2,11,-1,1.507964,47
6.732000,pos,1.000000,0.000000,Line,2,12,-1,1.507964,47
7.77000,pos,1.000000,0.000000,Line,2,13,-1,1.507964,47
7.527000,ori,0.015708,0.000000,Line,2,13,-1,1.523672,47
7.969000,ori,0.015708,0.000000,Line,2,13,-1,1.539380,47
8.368000,ori,0.015708,0.000000,Line,2,13,-1,1.555088,47
8.939000,ori,0.015708,0.000000,Line,2,13,-1,1.570796,47
9.756000,ori,-0.015708,0.000000,Line,2,13,-1,1.555088,47
10.238000,ori,0.015708,0.000000,Line,2,13,-1,1.570796,47
10.644000,pos,0.000000,1.000000,Line,2,13,0,1.570796,47
11.89000,pos,-1.000000,0.000000,Line,2,12,0,1.570796,47
11.740000,pos,0.000000,-1.000000,Line,2,12,-1,1.570796,47
12.292000,pos,0.000000,1.000000,Line,2,12,0,1.570796,47
15.419000,pos,-1.000000,0.000000,Line,2,11,0,1.570796,47
16.408000,pos,1.000000,0.000000,Line,2,12,0,1.570796,47
18.32000,pos,-1.000000,0.000000,Line,2,11,0,1.570796,47
24.949000,pos,1.000000,0.000000,Line,2,12,0,1.570796,47
30.268000,pos,-1.000000,0.000000,Line,2,11,0,1.570796,47
31.339000,pos,1.000000,0.000000,Line,2,12,0,1.570796,47
