0.0,ver,1.000000,0.000000
0.16000,lc:adehilmpambncodp,10.000000,8.000000
0.78000,ori,0.000000,0.000000,Line,0,16,-2,1.271453,46
0.78000,ori,0.000000,0.000000,Line,1,-5,-13,1.174015,23
0.78000,ori,0.000000,0.000000,Line,2,-16,-2,1.872528,46
0.78000,ori,0.000000,0.000000,Line,3,5,-13,1.967111,23
0.94000,lc:adehilmpambncodp,100.000000,8.000000
19.921000,add,1.000000,5.000000
21.372000,pos,-1.000000,0.000000,Line,4,-1,0,1.570796,39
21.544000,pos,-1.000000,0.000000,Line,4,-2,0,1.570796,39
21.715000,pos,-1.000000,0.000000,Line,4,-3,0,1.570796,39
21.887000,pos,-1.000000,0.000000,Line,4,-4,0,1.570796,39
22.27000,pos,-1.000000,0.000000,Line,4,-5,0,1.570796,39
22.168000,pos,-1.000000,0.000000,Line,4,-6,0,1.570796,39
22.324000,pos,-1.000000,0.000000,Line,4,-7,0,1.570796,39
22.464000,pos,-1.000000,0.000000,Line,4,-8,0,1.570796,39
22.636000,pos,-1.000000,0.000000,Line,4,-9,0,1.570796,39
22.901000,ori,0.015708,0.000000,Line,4,-9,0,1.586504,39
23.88000,ori,0.015708,0.000000,Line,4,-9,0,1.602212,39
23.260000,ori,0.015708,0.000000,Line,4,-9,0,1.617920,39
23.416000,ori,0.015708,0.000000,Line,4,-9,0,1.633628,39
23.603000,ori,0.015708,0.000000,Line,4,-9,0,1.649336,39
23.759000,ori,0.015708,0.000000,Line,4,-9,0,1.665044,39
23.930000,ori,0.015708,0.000000,Line,4,-9,0,1.680752,39
24.289000,ori,0.015708,0.000000,Line,4,-9,0,1.696460,39
24.445000,ori,0.015708,0.000000,Line,4,-9,0,1.712168,39
24.632000,ori,0.015708,0.000000,Line,4,-9,0,1.727876,39
24.804000,ori,0.015708,0.000000,Line,4,-9,0,1.743584,39
24.960000,ori,0.015708,0.000000,Line,4,-9,0,1.759292,39
25.147000,ori,0.015708,0.000000,Line,4,-9,0,1.775000,39
25.319000,ori,0.015708,0.000000,Line,4,-9,0,1.790708,39
25.475000,ori,0.015708,0.000000,Line,4,-9,0,1.806416,39
25.662000,ori,0.015708,0.000000,Line,4,-9,0,1.822124,39
25.818000,ori,0.015708,0.000000,Line,4,-9,0,1.837832,39
25.990000,ori,0.015708,0.000000,Line,4,-9,0,1.853540,39
26.177000,ori,0.015708,0.000000,Line,4,-9,0,1.869248,39
26.364000,ori,0.015708,0.000000,Line,4,-9,0,1.884956,39
26.536000,ori,0.015708,0.000000,Line,4,-9,0,1.900664,39
27.144000,pos,-1.000000,0.000000,Line,4,-10,0,1.900664,39
27.674000,pos,1.000000,0.000000,Line,4,-9,0,1.900664,39
28.111000,ori,0.015708,0.000000,Line,4,-9,0,1.916372,39
29.78000,ori,-0.015708,0.000000,Line,4,-9,0,1.900664,39
29.515000,ori,-0.015708,0.000000,Line,4,-9,0,1.884956,39
30.155000,pos,-1.000000,0.000000,Line,4,-10,0,1.884956,39
31.184000,ori,-0.015708,0.000000,Line,4,-10,0,1.869248,39
31.512000,pos,-1.000000,0.000000,Line,4,-11,0,1.869248,39
31.715000,pos,-1.000000,0.000000,Line,4,-12,0,1.869248,39
32.120000,pos,0.000000,1.000000,Line,4,-12,1,1.869248,39
32.573000,pos,-1.000000,0.000000,Line,4,-13,1,1.869248,39
33.244000,pos,-1.000000,0.000000,Line,4,-14,1,1.869248,39
33.758000,pos,1.000000,0.000000,Line,4,-13,1,1.869248,39
34.523000,pos,1.000000,0.000000,Line,4,-12,1,1.869248,39
35.6000,pos,1.000000,0.000000,Line,4,-11,1,1.869248,39
36.925000,length,-1.000000,0.000000,Line,4,-11,1,1.869248,38
37.346000,pos,0.000000,1.000000,Line,4,-11,2,1.869248,38
37.861000,pos,0.000000,1.000000,Line,4,-11,3,1.869248,38
38.797000,length,-1.000000,0.000000,Line,4,-11,3,1.869248,37
39.936000,pos,0.000000,1.000000,Line,4,-11,4,1.869248,37
40.778000,pos,-1.000000,0.000000,Line,4,-12,4,1.869248,37
41.449000,pos,1.000000,0.000000,Line,4,-11,4,1.869248,37
42.401000,pos,1.000000,0.000000,Line,4,-10,4,1.869248,37
43.259000,pos,-1.000000,0.000000,Line,4,-11,4,1.869248,37
46.987000,length,-1.000000,0.000000,Line,4,-11,4,1.869248,36
48.469000,pos,0.000000,-1.000000,Line,4,-11,3,1.869248,36
48.890000,pos,1.000000,0.000000,Line,4,-10,3,1.869248,36
51.12000,pos,-1.000000,0.000000,Line,4,-11,3,1.869248,36
52.666000,pos,1.000000,0.000000,Line,4,-10,3,1.869248,36
55.608000,length,-1.000000,0.000000,Line,4,-10,3,1.869248,35
56.731000,pos,0.000000,1.000000,Line,4,-10,4,1.869248,35
57.667000,pos,0.000000,1.000000,Line,4,-10,5,1.869248,35
58.166000,pos,-1.000000,0.000000,Line,4,-11,5,1.869248,35
59.40000,pos,0.000000,-1.000000,Line,4,-11,4,1.869248,35
59.742000,pos,1.000000,0.000000,Line,4,-10,4,1.869248,35
67.573000,pos,0.000000,-1.000000,Line,4,-10,3,1.869248,35
68.447000,pos,0.000000,1.000000,Line,4,-10,4,1.869248,35
69.320000,pos,-1.000000,0.000000,Line,4,-11,4,1.869248,35
70.787000,pos,0.000000,1.000000,Line,4,-11,5,1.869248,35
74.999000,length,1.000000,0.000000,Line,4,-11,5,1.869248,36
75.825000,pos,0.000000,-1.000000,Line,4,-11,4,1.869248,36
76.496000,pos,1.000000,0.000000,Line,4,-10,4,1.869248,36
77.526000,pos,-1.000000,0.000000,Line,4,-11,4,1.869248,36
77.994000,pos,0.000000,-1.000000,Line,4,-11,3,1.869248,36
78.509000,pos,0.000000,1.000000,Line,4,-11,4,1.869248,36
79.507000,pos,0.000000,1.000000,Line,4,-11,5,1.869248,36
83.235000,pos,0.000000,-1.000000,Line,4,-11,4,1.869248,36
