0.0,ver,1.000000,0.000000
0.22000,lc:adehilmpambncodp,10.000000,8.000000
0.69000,ori,0.000000,0.000000,Line,0,0,-13,1.582913,26
0.69000,ori,0.000000,0.000000,Line,1,7,11,1.098175,30
0.69000,ori,0.000000,0.000000,Line,2,-7,10,2.033748,31
0.85000,lc:adehilmpambncodp,100.000000,8.000000
3.130000,length,-1.000000,0.000000,Line,0,0,-13,1.582913,25
3.370000,length,-1.000000,0.000000,Line,0,0,-13,1.582913,24
3.967000,length,-1.000000,0.000000,Line,0,0,-13,1.582913,23
4.411000,length,-1.000000,0.000000,Line,0,0,-13,1.582913,22
5.237000,sel,1.000000,0.000000
6.302000,length,-1.000000,0.000000,Line,1,7,11,1.098175,29
6.512000,length,-1.000000,0.000000,Line,1,7,11,1.098175,28
6.697000,length,-1.000000,0.000000,Line,1,7,11,1.098175,27
7.846000,pos,0.000000,-1.000000,Line,1,7,10,1.098175,27
9.470000,ori,0.015708,0.000000,Line,1,7,10,1.113883,27
9.699000,ori,0.015708,0.000000,Line,1,7,10,1.129591,27
9.897000,ori,0.015708,0.000000,Line,1,7,10,1.145299,27
10.125000,ori,0.015708,0.000000,Line,1,7,10,1.161007,27
10.360000,ori,0.015708,0.000000,Line,1,7,10,1.176715,27
10.744000,pos,-1.000000,0.000000,Line,1,6,10,1.176715,27
12.319000,sel,2.000000,0.000000
14.288000,ori,-0.015708,0.000000,Line,2,-7,10,2.018040,31
14.522000,ori,-0.015708,0.000000,Line,2,-7,10,2.002332,31
14.748000,ori,-0.015708,0.000000,Line,2,-7,10,1.986624,31
15.35000,ori,-0.015708,0.000000,Line,2,-7,10,1.970916,31
16.223000,length,-1.000000,0.000000,Line,2,-7,10,1.970916,30
16.444000,length,-1.000000,0.000000,Line,2,-7,10,1.970916,29
16.751000,pos,1.000000,0.000000,Line,2,-6,10,1.970916,29
19.681000,ori,-0.015708,0.000000,Line,2,-6,10,1.955208,29
21.110000,pos,1.000000,0.000000,Line,2,-5,10,1.955208,29
22.883000,sel,0.000000,0.000000
23.382000,sel,1.000000,0.000000
23.867000,pos,-1.000000,0.000000,Line,1,5,10,1.176715,27
25.936000,pos,0.000000,1.000000,Line,1,5,11,1.176715,27
