0.0,ver,1.000000,0.000000
0.15000,lc:adehilmpambncodp,10.000000,8.000000
0.78000,ori,0.000000,0.000000,Line,0,8,4,1.564505,40
0.78000,ori,0.000000,0.000000,Line,1,0,5,1.130973,39
0.78000,ori,0.000000,0.000000,Arc,2,0,-14,1.330726,16
0.93000,lc:adehilmpambncodp,100.000000,8.000000
1.185000,sel,1.000000,0.000000
3.213000,ori,0.015708,0.000000,Line,1,0,5,1.146681,39
3.369000,ori,0.015708,0.000000,Line,1,0,5,1.162389,39
3.525000,ori,0.015708,0.000000,Line,1,0,5,1.178097,39
3.697000,ori,0.015708,0.000000,Line,1,0,5,1.193805,39
3.853000,ori,0.015708,0.000000,Line,1,0,5,1.209513,39
4.24000,ori,0.015708,0.000000,Line,1,0,5,1.225221,39
4.196000,ori,0.015708,0.000000,Line,1,0,5,1.240929,39
4.446000,pos,1.000000,0.000000,Line,1,1,5,1.240929,39
4.570000,ori,0.015708,0.000000,Line,1,1,5,1.256637,39
4.648000,pos,1.000000,0.000000,Line,1,2,5,1.256637,39
4.836000,pos,1.000000,0.000000,Line,1,3,5,1.256637,39
5.179000,pos,1.000000,0.000000,Line,1,4,5,1.256637,39
5.350000,pos,1.000000,0.000000,Line,1,5,5,1.256637,39
5.522000,pos,1.000000,0.000000,Line,1,6,5,1.256637,39
5.678000,pos,1.000000,0.000000,Line,1,7,5,1.256637,39
5.834000,pos,1.000000,0.000000,Line,1,8,5,1.256637,39
6.37000,pos,1.000000,0.000000,Line,1,9,5,1.256637,39
6.224000,pos,1.000000,0.000000,Line,1,10,5,1.256637,39
6.442000,ori,0.015708,0.000000,Line,1,10,5,1.272345,39
6.630000,ori,0.015708,0.000000,Line,1,10,5,1.288053,39
6.770000,ori,0.015708,0.000000,Line,1,10,5,1.303761,39
6.942000,ori,0.015708,0.000000,Line,1,10,5,1.319469,39
7.129000,ori,0.015708,0.000000,Line,1,10,5,1.335177,39
7.300000,ori,0.015708,0.000000,Line,1,10,5,1.350884,39
7.472000,ori,0.015708,0.000000,Line,1,10,5,1.366592,39
7.659000,ori,0.015708,0.000000,Line,1,10,5,1.382300,39
7.924000,ori,0.015708,0.000000,Line,1,10,5,1.398008,39
8.143000,ori,0.015708,0.000000,Line,1,10,5,1.413716,39
8.361000,ori,0.015708,0.000000,Line,1,10,5,1.429424,39
8.502000,ori,0.015708,0.000000,Line,1,10,5,1.445132,39
8.767000,ori,0.015708,0.000000,Line,1,10,5,1.460840,39
8.938000,ori,0.015708,0.000000,Line,1,10,5,1.476548,39
9.94000,ori,0.015708,0.000000,Line,1,10,5,1.492256,39
9.282000,ori,0.015708,0.000000,Line,1,10,5,1.507964,39
9.656000,ori,0.015708,0.000000,Line,1,10,5,1.523672,39
9.859000,ori,0.015708,0.000000,Line,1,10,5,1.539380,39
10.30000,ori,0.015708,0.000000,Line,1,10,5,1.555088,39
10.202000,ori,0.015708,0.000000,Line,1,10,5,1.570796,39
10.374000,ori,0.015708,0.000000,Line,1,10,5,1.586504,39
10.545000,ori,0.015708,0.000000,Line,1,10,5,1.602212,39
10.732000,ori,0.015708,0.000000,Line,1,10,5,1.617920,39
10.920000,ori,0.015708,0.000000,Line,1,10,5,1.633628,39
11.107000,ori,0.015708,0.000000,Line,1,10,5,1.649336,39
11.294000,ori,0.015708,0.000000,Line,1,10,5,1.665044,39
11.434000,pos,1.000000,0.000000,Line,1,11,5,1.665044,39
11.512000,ori,0.015708,0.000000,Line,1,11,5,1.680752,39
11.668000,ori,0.015708,0.000000,Line,1,11,5,1.696460,39
11.793000,pos,1.000000,0.000000,Line,1,12,5,1.696460,39
11.980000,pos,1.000000,0.000000,Line,1,13,5,1.696460,39
12.27000,ori,0.015708,0.000000,Line,1,13,5,1.712168,39
12.277000,ori,0.015708,0.000000,Line,1,13,5,1.727876,39
12.511000,ori,0.015708,0.000000,Line,1,13,5,1.743584,39
12.714000,ori,0.015708,0.000000,Line,1,13,5,1.759292,39
12.885000,ori,0.015708,0.000000,Line,1,13,5,1.774999,39
13.57000,ori,0.015708,0.000000,Line,1,13,5,1.790707,39
13.244000,ori,0.015708,0.000000,Line,1,13,5,1.806415,39
13.431000,ori,0.015708,0.000000,Line,1,13,5,1.822123,39
13.634000,ori,0.015708,0.000000,Line,1,13,5,1.837831,39
13.759000,pos,1.000000,0.000000,Line,1,14,5,1.837831,39
14.211000,ori,0.015708,0.000000,Line,1,14,5,1.853539,39
14.632000,pos,1.000000,0.000000,Line,1,15,5,1.853539,39
15.272000,ori,0.015708,0.000000,Line,1,15,5,1.869247,39
15.834000,ori,0.015708,0.000000,Line,1,15,5,1.884955,39
16.52000,ori,0.015708,0.000000,Line,1,15,5,1.900663,39
16.255000,ori,0.015708,0.000000,Line,1,15,5,1.916371,39
16.473000,ori,0.015708,0.000000,Line,1,15,5,1.932079,39
16.785000,ori,0.015708,0.000000,Line,1,15,5,1.947787,39
17.35000,pos,1.000000,0.000000,Line,1,16,5,1.947787,39
17.674000,pos,0.000000,1.000000,Line,1,16,6,1.947787,39
18.332000,pos,0.000000,-1.000000,Line,1,16,5,1.947787,39
19.408000,ori,0.015708,0.000000,Line,1,16,5,1.963495,39
