0.15000,ver,1.000000,0.000000
0.31000,lc:adehilmpambncodp,10.000000,8.000000
0.109000,ori,0.000000,0.000000,Line,0,2,22,3.141126,22
0.109000,ori,0.000000,0.000000,Line,1,-9,0,1.564505,48
0.109000,ori,0.000000,0.000000,Line,2,2,-22,0.000000,22
0.109000,ori,0.000000,0.000000,Line,3,0,-1,0.000000,16
0.109000,lc:adehilmpambncodp,100.000000,8.000000
5.101000,add,1.000000,5.000000
7.457000,ori,-0.003068,0.000000,Line,4,0,0,1.567728,39
7.472000,ori,-0.009204,0.000000,Line,4,0,0,1.558524,39
7.488000,ori,-0.036816,0.000000,Line,4,0,0,1.521709,39
7.503000,ori,-0.021476,0.000000,Line,4,0,0,1.500233,39
7.519000,ori,-0.027612,0.000000,Line,4,0,0,1.472622,39
7.550000,ori,-0.021476,0.000000,Line,4,0,0,1.451146,39
7.566000,ori,-0.046019,0.000000,Line,4,0,0,1.405126,39
7.581000,ori,-0.049087,0.000000,Line,4,0,0,1.356039,39
7.597000,ori,-0.055223,0.000000,Line,4,0,0,1.300816,39
7.613000,ori,-0.049087,0.000000,Line,4,0,0,1.251728,39
7.628000,ori,-0.067495,0.000000,Line,4,0,0,1.184233,39
7.644000,ori,-0.046019,0.000000,Line,4,0,0,1.138214,39
7.659000,ori,-0.030680,0.000000,Line,4,0,0,1.107534,39
7.675000,ori,-0.021476,0.000000,Line,4,0,0,1.086058,39
7.701000,ori,-0.027612,0.000000,Line,4,0,0,1.058447,39
8.21000,ori,-0.006136,0.000000,Line,4,0,0,1.052311,39
8.52000,ori,-0.018408,0.000000,Line,4,0,0,1.033903,39
8.67000,ori,-0.036816,0.000000,Line,4,0,0,0.997088,39
8.83000,ori,-0.128854,0.000000,Line,4,0,0,0.868233,39
8.99000,ori,-0.104311,0.000000,Line,4,0,0,0.763922,39
8.114000,ori,-0.067495,0.000000,Line,4,0,0,0.696427,39
8.130000,ori,-0.070563,0.000000,Line,4,0,0,0.625864,39
8.145000,ori,-0.036816,0.000000,Line,4,0,0,0.589049,39
8.161000,ori,-0.015340,0.000000,Line,4,0,0,0.573709,39
8.177000,ori,-0.012272,0.000000,Line,4,0,0,0.561437,39
8.192000,ori,-0.012272,0.000000,Line,4,0,0,0.549165,39
8.208000,ori,-0.006136,0.000000,Line,4,0,0,0.543029,39
8.223000,ori,-0.006136,0.000000,Line,4,0,0,0.536893,39
8.582000,ori,0.003068,0.000000,Line,4,0,0,0.539961,39
8.598000,ori,-0.018408,0.000000,Line,4,0,0,0.521553,39
8.613000,ori,-0.055223,0.000000,Line,4,0,0,0.466330,39
8.629000,ori,-0.070563,0.000000,Line,4,0,0,0.395767,39
8.645000,ori,-0.150330,0.000000,Line,4,0,0,0.245437,39
8.660000,ori,-0.067495,0.000000,Line,4,0,0,0.177942,39
8.676000,ori,-0.049087,0.000000,Line,4,0,0,0.128854,39
8.691000,ori,-0.015340,0.000000,Line,4,0,0,0.113515,39
8.707000,ori,-0.018408,0.000000,Line,4,0,0,0.095107,39
8.738000,ori,-0.006136,0.000000,Line,4,0,0,0.088971,39
8.754000,ori,-0.003068,0.000000,Line,4,0,0,0.085903,39
9.144000,ori,-0.003068,0.000000,Line,4,0,0,0.082835,39
9.159000,ori,-0.003068,0.000000,Line,4,0,0,0.079767,39
9.175000,ori,-0.003068,0.000000,Line,4,0,0,0.076699,39
9.206000,ori,-0.006136,0.000000,Line,4,0,0,0.070563,39
9.222000,ori,-0.003068,0.000000,Line,4,0,0,0.067495,39
9.237000,ori,0.000000,0.000000,Line,4,0,0,0.067495,39
9.253000,ori,-0.003068,0.000000,Line,4,0,0,0.064427,39
9.269000,ori,-0.003068,0.000000,Line,4,0,0,0.061359,39
9.284000,ori,-0.003068,0.000000,Line,4,0,0,0.058291,39
9.534000,ori,-0.003068,0.000000,Line,4,0,0,0.055223,39
9.612000,ori,-0.003068,0.000000,Line,4,0,0,0.052155,39
9.627000,ori,0.000000,0.000000,Line,4,0,0,0.052155,39
9.690000,ori,-0.003068,0.000000,Line,4,0,0,0.049087,39
9.721000,ori,-0.003068,0.000000,Line,4,0,0,0.046019,39
9.737000,ori,0.000000,0.000000,Line,4,0,0,0.046019,39
9.752000,ori,-0.003068,0.000000,Line,4,0,0,0.042951,39
9.768000,ori,0.003068,0.000000,Line,4,0,0,0.046019,39
9.783000,ori,-0.006136,0.000000,Line,4,0,0,0.039884,39
9.799000,ori,0.000000,0.000000,Line,4,0,0,0.039884,39
9.815000,ori,-0.003068,0.000000,Line,4,0,0,0.036816,39
9.830000,ori,0.000000,0.000000,Line,4,0,0,0.036816,39
9.846000,ori,-0.003068,0.000000,Line,4,0,0,0.033748,39
9.861000,ori,0.000000,0.000000,Line,4,0,0,0.033748,39
9.924000,ori,-0.003068,0.000000,Line,4,0,0,0.030680,39
10.33000,ori,-0.009204,0.000000,Line,4,0,0,0.021476,39
10.49000,ori,0.003068,0.000000,Line,4,0,0,0.024544,39
10.80000,ori,0.003068,0.000000,Line,4,0,0,0.027612,39
10.95000,ori,0.003068,0.000000,Line,4,0,0,0.030680,39
10.766000,sel,0.000000,0.000000
12.935000,sel,1.000000,0.000000
13.231000,sel,2.000000,0.000000
13.465000,sel,3.000000,0.000000
13.980000,sel,4.000000,0.000000
14.448000,pos,0.000000,-1.000000,Line,4,0,-1,0.030680,39
14.651000,pos,0.000000,-1.000000,Line,4,0,-2,0.030680,39
14.807000,pos,0.000000,-1.000000,Line,4,0,-3,0.030680,39
14.947000,pos,0.000000,-1.000000,Line,4,0,-4,0.030680,39
15.119000,pos,0.000000,-1.000000,Line,4,0,-5,0.030680,39
15.275000,pos,0.000000,-1.000000,Line,4,0,-6,0.030680,39
15.415000,pos,0.000000,-1.000000,Line,4,0,-7,0.030680,39
15.587000,pos,0.000000,-1.000000,Line,4,0,-8,0.030680,39
15.743000,pos,0.000000,-1.000000,Line,4,0,-9,0.030680,39
16.86000,pos,0.000000,-1.000000,Line,4,0,-10,0.030680,39
16.242000,pos,0.000000,-1.000000,Line,4,0,-11,0.030680,39
16.398000,pos,0.000000,-1.000000,Line,4,0,-12,0.030680,39
16.569000,pos,0.000000,-1.000000,Line,4,0,-13,0.030680,39
16.850000,pos,0.000000,-1.000000,Line,4,0,-14,0.030680,39
17.318000,pos,-1.000000,0.000000,Line,4,-1,-14,0.030680,39
17.505000,pos,-1.000000,0.000000,Line,4,-2,-14,0.030680,39
17.677000,pos,-1.000000,0.000000,Line,4,-3,-14,0.030680,39
18.161000,pos,-1.000000,0.000000,Line,4,-4,-14,0.030680,39
18.566000,pos,1.000000,0.000000,Line,4,-3,-14,0.030680,39
18.753000,pos,1.000000,0.000000,Line,4,-2,-14,0.030680,39
18.894000,pos,1.000000,0.000000,Line,4,-1,-14,0.030680,39
19.190000,length,-1.000000,0.000000,Line,4,-1,-14,0.030680,38
19.442000,length,-1.000000,0.000000,Line,4,-1,-14,0.030680,37
19.801000,length,-1.000000,0.000000,Line,4,-1,-14,0.030680,36
19.972000,length,-1.000000,0.000000,Line,4,-1,-14,0.030680,35
20.128000,length,-1.000000,0.000000,Line,4,-1,-14,0.030680,34
20.315000,length,-1.000000,0.000000,Line,4,-1,-14,0.030680,33
20.471000,length,-1.000000,0.000000,Line,4,-1,-14,0.030680,32
20.643000,length,-1.000000,0.000000,Line,4,-1,-14,0.030680,31
20.799000,length,-1.000000,0.000000,Line,4,-1,-14,0.030680,30
20.986000,length,-1.000000,0.000000,Line,4,-1,-14,0.030680,29
21.298000,length,-1.000000,0.000000,Line,4,-1,-14,0.030680,28
21.844000,ori,0.015708,0.000000,Line,4,-1,-14,0.046388,28
22.219000,length,-1.000000,0.000000,Line,4,-1,-14,0.046388,27
22.421000,length,-1.000000,0.000000,Line,4,-1,-14,0.046388,26
22.655000,ori,0.015708,0.000000,Line,4,-1,-14,0.062096,26
23.45000,ori,0.015708,0.000000,Line,4,-1,-14,0.077804,26
23.591000,ori,0.015708,0.000000,Line,4,-1,-14,0.093511,26
28.256000,ori,0.015708,0.000000,Line,4,-1,-14,0.109219,26
28.615000,ori,0.015708,0.000000,Line,4,-1,-14,0.124927,26
29.519000,ori,-0.015708,0.000000,Line,4,-1,-14,0.109219,26
29.738000,ori,-0.015708,0.000000,Line,4,-1,-14,0.093511,26
29.909000,ori,-0.015708,0.000000,Line,4,-1,-14,0.077804,26
30.128000,ori,-0.015708,0.000000,Line,4,-1,-14,0.062096,26
30.346000,ori,-0.015708,0.000000,Line,4,-1,-14,0.046388,26
30.658000,ori,-0.015708,0.000000,Line,4,-1,-14,0.030680,26
31.298000,ori,-0.015708,0.000000,Line,4,-1,-14,0.014972,26
32.530000,length,-1.000000,0.000000,Line,4,-1,-14,0.014972,25
32.702000,length,-1.000000,0.000000,Line,4,-1,-14,0.014972,24
32.873000,length,-1.000000,0.000000,Line,4,-1,-14,0.014972,23
33.61000,length,-1.000000,0.000000,Line,4,-1,-14,0.014972,22
33.248000,length,-1.000000,0.000000,Line,4,-1,-14,0.014972,21
33.747000,length,-1.000000,0.000000,Line,4,-1,-14,0.014972,20
34.75000,pos,1.000000,0.000000,Line,4,0,-14,0.014972,20
36.25000,pos,-0.500000,0.000000,Line,4,0,-14,0.014972,20
36.103000,pos,-0.500000,0.000000,Line,4,-1,-14,0.014972,20
37.522000,pos,1.000000,0.000000,Line,4,0,-14,0.014972,20
37.756000,pos,1.000000,0.000000,Line,4,1,-14,0.014972,20
38.162000,pos,1.000000,0.000000,Line,4,2,-14,0.014972,20
38.599000,pos,1.000000,0.000000,Line,4,3,-14,0.014972,20
39.129000,pos,-1.000000,0.000000,Line,4,2,-14,0.014972,20
40.252000,pos,0.000000,-1.000000,Line,4,2,-15,0.014972,20
41.921000,sel,0.000000,0.000000
42.421000,sel,1.000000,0.000000
42.967000,sel,2.000000,0.000000
43.903000,pos,0.000000,-1.000000,Line,2,2,-23,0.000000,22
44.511000,pos,0.000000,1.000000,Line,2,2,-22,0.000000,22
45.915000,sel,3.000000,0.000000
46.430000,sel,4.000000,0.000000
47.147000,pos,0.000000,1.000000,Line,4,2,-14,0.014972,20
54.372000,pos,0.000000,1.000000,Line,4,2,-13,0.014972,20
54.778000,pos,0.000000,1.000000,Line,4,2,-12,0.014972,20
54.981000,pos,0.000000,1.000000,Line,4,2,-11,0.014972,20
55.417000,pos,0.000000,-1.000000,Line,4,2,-12,0.014972,20
62.157000,pos,0.000000,-1.000000,Line,4,2,-13,0.014972,20
62.313000,pos,0.000000,-1.000000,Line,4,2,-14,0.014972,20
62.531000,pos,0.000000,-1.000000,Line,4,2,-15,0.014972,20
62.656000,pos,0.000000,-1.000000,Line,4,2,-16,0.014972,20
62.952000,pos,0.000000,-1.000000,Line,4,2,-17,0.014972,20
65.277000,length,1.000000,0.000000,Line,4,2,-17,0.014972,21
66.119000,pos,0.000000,1.000000,Line,4,2,-16,0.014972,21
66.306000,pos,0.000000,1.000000,Line,4,2,-15,0.014972,21
66.447000,pos,0.000000,1.000000,Line,4,2,-14,0.014972,21
66.634000,pos,0.000000,1.000000,Line,4,2,-13,0.014972,21
66.805000,pos,0.000000,1.000000,Line,4,2,-12,0.014972,21
66.977000,pos,0.000000,1.000000,Line,4,2,-11,0.014972,21
67.367000,pos,0.000000,1.000000,Line,4,2,-10,0.014972,21
67.786000,pos,0.000000,-1.000000,Line,4,2,-11,0.014972,21
67.989000,pos,0.000000,-1.000000,Line,4,2,-12,0.014972,21
72.203000,pos,0.000000,1.000000,Line,4,2,-11,0.014972,21
72.359000,pos,0.000000,1.000000,Line,4,2,-10,0.014972,21
72.920000,pos,0.000000,1.000000,Line,4,2,-9,0.014972,21
73.76000,pos,0.000000,1.000000,Line,4,2,-8,0.014972,21
73.232000,pos,0.000000,1.000000,Line,4,2,-7,0.014972,21
73.388000,pos,0.000000,1.000000,Line,4,2,-6,0.014972,21
73.560000,pos,0.000000,1.000000,Line,4,2,-5,0.014972,21
73.700000,pos,0.000000,1.000000,Line,4,2,-4,0.014972,21
73.997000,pos,0.000000,1.000000,Line,4,2,-3,0.014972,21
74.168000,pos,0.000000,1.000000,Line,4,2,-2,0.014972,21
74.340000,pos,0.000000,1.000000,Line,4,2,-1,0.014972,21
74.512000,pos,0.000000,1.000000,Line,4,2,0,0.014972,21
74.699000,pos,0.000000,1.000000,Line,4,2,1,0.014972,21
74.870000,pos,0.000000,1.000000,Line,4,2,2,0.014972,21
75.42000,pos,0.000000,1.000000,Line,4,2,3,0.014972,21
75.229000,pos,0.000000,1.000000,Line,4,2,4,0.014972,21
75.416000,pos,0.000000,1.000000,Line,4,2,5,0.014972,21
75.572000,pos,0.000000,1.000000,Line,4,2,6,0.014972,21
75.744000,pos,0.000000,1.000000,Line,4,2,7,0.014972,21
75.900000,pos,0.000000,1.000000,Line,4,2,8,0.014972,21
76.56000,pos,0.000000,1.000000,Line,4,2,9,0.014972,21
76.337000,pos,0.000000,1.000000,Line,4,2,10,0.014972,21
76.914000,pos,1.000000,0.000000,Line,4,3,10,0.014972,21
77.413000,pos,0.000000,1.000000,Line,4,3,11,0.014972,21
77.944000,pos,0.000000,-1.000000,Line,4,3,10,0.014972,21
81.25000,ori,-0.015708,0.000000,Line,4,3,10,-0.000736,21
83.162000,pos,0.000000,1.000000,Line,4,3,11,-0.000736,21
83.349000,pos,0.000000,1.000000,Line,4,3,12,-0.000736,21
83.521000,pos,0.000000,1.000000,Line,4,3,13,-0.000736,21
83.677000,pos,0.000000,1.000000,Line,4,3,14,-0.000736,21
83.833000,pos,0.000000,1.000000,Line,4,3,15,-0.000736,21
84.36000,pos,0.000000,1.000000,Line,4,3,16,-0.000736,21
84.285000,pos,0.000000,1.000000,Line,4,3,17,-0.000736,21
84.535000,pos,0.000000,1.000000,Line,4,3,18,-0.000736,21
85.3000,pos,-1.000000,0.000000,Line,4,2,18,-0.000736,21
86.173000,pos,0.000000,-1.000000,Line,4,2,17,-0.000736,21
87.171000,pos,0.000000,-1.000000,Line,4,2,16,-0.000736,21
87.374000,pos,0.000000,-1.000000,Line,4,2,15,-0.000736,21
87.530000,pos,0.000000,-1.000000,Line,4,2,14,-0.000736,21
87.686000,pos,0.000000,-1.000000,Line,4,2,13,-0.000736,21
87.858000,pos,0.000000,-1.000000,Line,4,2,12,-0.000736,21
88.14000,pos,0.000000,-1.000000,Line,4,2,11,-0.000736,21
88.170000,pos,0.000000,-1.000000,Line,4,2,10,-0.000736,21
88.326000,pos,0.000000,-1.000000,Line,4,2,9,-0.000736,21
88.497000,pos,0.000000,-1.000000,Line,4,2,8,-0.000736,21
88.669000,pos,0.000000,-1.000000,Line,4,2,7,-0.000736,21
88.840000,pos,0.000000,-1.000000,Line,4,2,6,-0.000736,21
89.152000,pos,0.000000,-1.000000,Line,4,2,5,-0.000736,21
89.324000,pos,0.000000,-1.000000,Line,4,2,4,-0.000736,21
89.496000,pos,0.000000,-1.000000,Line,4,2,3,-0.000736,21
89.652000,pos,0.000000,-1.000000,Line,4,2,2,-0.000736,21
89.808000,pos,0.000000,-1.000000,Line,4,2,1,-0.000736,21
89.979000,pos,0.000000,-1.000000,Line,4,2,0,-0.000736,21
90.151000,pos,0.000000,-1.000000,Line,4,2,-1,-0.000736,21
90.307000,pos,0.000000,-1.000000,Line,4,2,-2,-0.000736,21
90.510000,pos,0.000000,-1.000000,Line,4,2,-3,-0.000736,21
90.666000,pos,0.000000,-1.000000,Line,4,2,-4,-0.000736,21
90.837000,pos,0.000000,-1.000000,Line,4,2,-5,-0.000736,21
91.24000,pos,0.000000,-1.000000,Line,4,2,-6,-0.000736,21
91.227000,pos,0.000000,-1.000000,Line,4,2,-7,-0.000736,21
91.414000,pos,0.000000,-1.000000,Line,4,2,-8,-0.000736,21
91.617000,pos,0.000000,-1.000000,Line,4,2,-9,-0.000736,21
91.804000,pos,0.000000,-1.000000,Line,4,2,-10,-0.000736,21
91.976000,pos,0.000000,-1.000000,Line,4,2,-11,-0.000736,21
92.179000,pos,0.000000,-1.000000,Line,4,2,-12,-0.000736,21
92.335000,pos,0.000000,-1.000000,Line,4,2,-13,-0.000736,21
92.506000,pos,0.000000,-1.000000,Line,4,2,-14,-0.000736,21
92.662000,pos,0.000000,-1.000000,Line,4,2,-15,-0.000736,21
92.865000,pos,0.000000,-1.000000,Line,4,2,-16,-0.000736,21
93.208000,pos,0.000000,-1.000000,Line,4,2,-17,-0.000736,21
93.723000,pos,0.000000,-1.000000,Line,4,2,-18,-0.000736,21
94.472000,pos,0.000000,1.000000,Line,4,2,-17,-0.000736,21
94.706000,pos,0.000000,1.000000,Line,4,2,-16,-0.000736,21
94.878000,pos,0.000000,1.000000,Line,4,2,-15,-0.000736,21
95.18000,pos,0.000000,1.000000,Line,4,2,-14,-0.000736,21
95.205000,pos,0.000000,1.000000,Line,4,2,-13,-0.000736,21
95.392000,pos,0.000000,1.000000,Line,4,2,-12,-0.000736,21
95.595000,pos,0.000000,1.000000,Line,4,2,-11,-0.000736,21
96.141000,pos,0.000000,-1.000000,Line,4,2,-12,-0.000736,21
98.44000,pos,0.000000,-1.000000,Line,4,2,-13,-0.000736,21
99.901000,pos,0.000000,1.000000,Line,4,2,-12,-0.000736,21
100.681000,pos,0.000000,-1.000000,Line,4,2,-13,-0.000736,21
102.553000,pos,0.000000,1.000000,Line,4,2,-12,-0.000736,21
102.771000,pos,0.000000,1.000000,Line,4,2,-11,-0.000736,21
103.68000,pos,0.000000,1.000000,Line,4,2,-10,-0.000736,21
103.255000,pos,0.000000,1.000000,Line,4,2,-9,-0.000736,21
103.411000,pos,0.000000,1.000000,Line,4,2,-8,-0.000736,21
103.582000,pos,0.000000,1.000000,Line,4,2,-7,-0.000736,21
103.770000,pos,0.000000,1.000000,Line,4,2,-6,-0.000736,21
103.941000,pos,0.000000,1.000000,Line,4,2,-5,-0.000736,21
104.97000,pos,0.000000,1.000000,Line,4,2,-4,-0.000736,21
104.284000,pos,0.000000,1.000000,Line,4,2,-3,-0.000736,21
104.440000,pos,0.000000,1.000000,Line,4,2,-2,-0.000736,21
104.674000,pos,0.000000,1.000000,Line,4,2,-1,-0.000736,21
105.236000,pos,0.000000,1.000000,Line,4,2,0,-0.000736,21
105.985000,pos,0.000000,-1.000000,Line,4,2,-1,-0.000736,21
107.124000,pos,0.000000,-1.000000,Line,4,2,-2,-0.000736,21
107.342000,pos,0.000000,-1.000000,Line,4,2,-3,-0.000736,21
107.545000,pos,0.000000,-1.000000,Line,4,2,-4,-0.000736,21
107.748000,pos,0.000000,-1.000000,Line,4,2,-5,-0.000736,21
107.935000,pos,0.000000,-1.000000,Line,4,2,-6,-0.000736,21
108.153000,pos,0.000000,-1.000000,Line,4,2,-7,-0.000736,21
108.309000,pos,0.000000,-1.000000,Line,4,2,-8,-0.000736,21
108.512000,pos,0.000000,-1.000000,Line,4,2,-9,-0.000736,21
108.730000,pos,0.000000,-1.000000,Line,4,2,-10,-0.000736,21
108.933000,pos,0.000000,-1.000000,Line,4,2,-11,-0.000736,21
109.152000,pos,0.000000,-1.000000,Line,4,2,-12,-0.000736,21
109.354000,pos,0.000000,-1.000000,Line,4,2,-13,-0.000736,21
110.431000,pos,0.000000,1.000000,Line,4,2,-12,-0.000736,21
110.838000,pos,0.000000,-1.000000,Line,4,2,-13,-0.000736,21
111.743000,pos,0.000000,1.000000,Line,4,2,-12,-0.000736,21
132.574000,add,1.000000,6.000000
134.9000,ori,-0.009204,0.000000,Line,5,0,0,1.561592,39
134.40000,ori,-0.018408,0.000000,Line,5,0,0,1.543185,39
134.56000,ori,-0.049087,0.000000,Line,5,0,0,1.494097,39
134.71000,ori,-0.125786,0.000000,Line,5,0,0,1.368311,39
134.87000,ori,-0.395767,0.000000,Line,5,0,0,0.972544,39
134.102000,ori,-0.193282,0.000000,Line,5,0,0,0.779262,39
134.461000,ori,-0.006136,0.000000,Line,5,0,0,0.773126,39
134.477000,ori,-0.012272,0.000000,Line,5,0,0,0.760854,39
134.508000,ori,-0.024544,0.000000,Line,5,0,0,0.736311,39
134.524000,ori,-0.092039,0.000000,Line,5,0,0,0.644272,39
134.539000,ori,-0.138058,0.000000,Line,5,0,0,0.506214,39
134.555000,ori,-0.174874,0.000000,Line,5,0,0,0.331340,39
134.570000,ori,-0.131922,0.000000,Line,5,0,0,0.199418,39
134.586000,ori,-0.079767,0.000000,Line,5,0,0,0.119651,39
134.602000,ori,-0.024544,0.000000,Line,5,0,0,0.095107,39
134.617000,ori,-0.012272,0.000000,Line,5,0,0,0.082835,39
134.633000,ori,-0.003068,0.000000,Line,5,0,0,0.079767,39
134.648000,ori,-0.006136,0.000000,Line,5,0,0,0.073631,39
134.664000,ori,-0.003068,0.000000,Line,5,0,0,0.070563,39
134.680000,ori,-0.006136,0.000000,Line,5,0,0,0.064427,39
134.695000,ori,-0.003068,0.000000,Line,5,0,0,0.061359,39
134.711000,ori,-0.003068,0.000000,Line,5,0,0,0.058291,39
135.163000,sel,0.000000,0.000000
136.411000,sel,1.000000,0.000000
136.879000,sel,2.000000,0.000000
137.144000,sel,3.000000,0.000000
137.378000,sel,4.000000,0.000000
137.784000,sel,5.000000,0.000000
138.751000,pos,0.000000,1.000000,Line,5,0,1,0.058291,39
138.907000,pos,0.000000,1.000000,Line,5,0,2,0.058291,39
139.79000,pos,0.000000,1.000000,Line,5,0,3,0.058291,39
139.266000,pos,0.000000,1.000000,Line,5,0,4,0.058291,39
139.360000,ori,-0.015708,0.000000,Line,5,0,4,0.042583,39
139.562000,ori,-0.015708,0.000000,Line,5,0,4,0.026875,39
139.812000,ori,-0.015708,0.000000,Line,5,0,4,0.011167,39
140.280000,pos,0.000000,1.000000,Line,5,0,5,0.011167,39
140.452000,pos,0.000000,1.000000,Line,5,0,6,0.011167,39
140.623000,pos,0.000000,1.000000,Line,5,0,7,0.011167,39
140.810000,pos,0.000000,1.000000,Line,5,0,8,0.011167,39
140.966000,length,1.000000,0.000000,Line,5,0,8,0.011167,40
140.998000,pos,0.000000,1.000000,Line,5,0,9,0.011167,40
141.169000,pos,0.000000,1.000000,Line,5,0,10,0.011167,40
141.185000,length,1.000000,0.000000,Line,5,0,10,0.011167,41
141.378000,length,1.000000,0.000000,Line,5,0,10,0.011167,42
141.378000,pos,0.000000,1.000000,Line,5,0,11,0.011167,42
141.534000,length,1.000000,0.000000,Line,5,0,11,0.011167,43
141.737000,length,1.000000,0.000000,Line,5,0,11,0.011167,44
142.517000,length,-1.000000,0.000000,Line,5,0,11,0.011167,43
142.704000,length,-1.000000,0.000000,Line,5,0,11,0.011167,42
142.876000,length,-1.000000,0.000000,Line,5,0,11,0.011167,41
143.63000,length,-1.000000,0.000000,Line,5,0,11,0.011167,40
143.250000,length,-1.000000,0.000000,Line,5,0,11,0.011167,39
143.422000,length,-1.000000,0.000000,Line,5,0,11,0.011167,38
143.593000,length,-1.000000,0.000000,Line,5,0,11,0.011167,37
143.749000,length,-1.000000,0.000000,Line,5,0,11,0.011167,36
143.936000,length,-1.000000,0.000000,Line,5,0,11,0.011167,35
144.108000,length,-1.000000,0.000000,Line,5,0,11,0.011167,34
144.280000,length,-1.000000,0.000000,Line,5,0,11,0.011167,33
144.467000,length,-1.000000,0.000000,Line,5,0,11,0.011167,32
144.638000,length,-1.000000,0.000000,Line,5,0,11,0.011167,31
144.841000,length,-1.000000,0.000000,Line,5,0,11,0.011167,30
144.997000,length,-1.000000,0.000000,Line,5,0,11,0.011167,29
145.169000,length,-1.000000,0.000000,Line,5,0,11,0.011167,28
145.356000,length,-1.000000,0.000000,Line,5,0,11,0.011167,27
145.543000,length,-1.000000,0.000000,Line,5,0,11,0.011167,26
145.730000,length,-1.000000,0.000000,Line,5,0,11,0.011167,25
145.933000,length,-1.000000,0.000000,Line,5,0,11,0.011167,24
146.120000,length,-1.000000,0.000000,Line,5,0,11,0.011167,23
146.401000,pos,0.000000,1.000000,Line,5,0,12,0.011167,23
146.729000,pos,1.000000,0.000000,Line,5,1,12,0.011167,23
147.228000,pos,1.000000,0.000000,Line,5,2,12,0.011167,23
147.587000,pos,0.000000,1.000000,Line,5,2,13,0.011167,23
147.774000,pos,0.000000,1.000000,Line,5,2,14,0.011167,23
147.946000,pos,0.000000,1.000000,Line,5,2,15,0.011167,23
148.102000,pos,0.000000,1.000000,Line,5,2,16,0.011167,23
148.414000,pos,0.000000,1.000000,Line,5,2,17,0.011167,23
150.332000,ori,-0.015708,0.000000,Line,5,2,17,-0.004541,23
150.941000,pos,0.000000,1.000000,Line,5,2,18,-0.004541,23
152.189000,pos,-1.000000,0.000000,Line,5,1,18,-0.004541,23
153.718000,length,-1.000000,0.000000,Line,5,1,18,-0.004541,22
154.92000,pos,1.000000,0.000000,Line,5,2,18,-0.004541,22
154.997000,pos,0.000000,-1.000000,Line,5,2,17,-0.004541,22
155.371000,pos,0.000000,-1.000000,Line,5,2,16,-0.004541,22
155.636000,pos,0.000000,-1.000000,Line,5,2,15,-0.004541,22
155.980000,pos,0.000000,-1.000000,Line,5,2,14,-0.004541,22
156.307000,pos,0.000000,-1.000000,Line,5,2,13,-0.004541,22
156.947000,pos,0.000000,-1.000000,Line,5,2,12,-0.004541,22
159.443000,pos,0.000000,1.000000,Line,5,2,13,-0.004541,22
160.940000,sel,0.000000,0.000000
162.360000,sel,1.000000,0.000000
162.937000,sel,2.000000,0.000000
163.405000,sel,3.000000,0.000000
163.936000,sel,4.000000,0.000000
164.684000,pos,0.000000,-1.000000,Line,4,2,-13,-0.000736,21
165.246000,pos,0.000000,-1.000000,Line,4,2,-14,-0.000736,21
165.714000,pos,0.000000,-1.000000,Line,4,2,-15,-0.000736,21
166.166000,pos,0.000000,-1.000000,Line,4,2,-16,-0.000736,21
166.634000,pos,0.000000,-1.000000,Line,4,2,-17,-0.000736,21
167.227000,pos,0.000000,-1.000000,Line,4,2,-18,-0.000736,21
168.600000,pos,0.000000,1.000000,Line,4,2,-17,-0.000736,21
169.115000,pos,0.000000,1.000000,Line,4,2,-16,-0.000736,21
169.536000,pos,0.000000,1.000000,Line,4,2,-15,-0.000736,21
169.864000,pos,0.000000,1.000000,Line,4,2,-14,-0.000736,21
170.176000,pos,0.000000,1.000000,Line,4,2,-13,-0.000736,21
170.534000,pos,0.000000,1.000000,Line,4,2,-12,-0.000736,21
171.158000,sel,5.000000,0.000000
172.284000,pos,0.000000,1.000000,Line,5,2,14,-0.004541,22
172.674000,pos,0.000000,1.000000,Line,5,2,15,-0.004541,22
173.48000,pos,0.000000,1.000000,Line,5,2,16,-0.004541,22
173.376000,pos,0.000000,1.000000,Line,5,2,17,-0.004541,22
173.688000,pos,0.000000,1.000000,Line,5,2,18,-0.004541,22
174.904000,pos,0.000000,-1.000000,Line,5,2,17,-0.004541,22
175.372000,pos,0.000000,-1.000000,Line,5,2,16,-0.004541,22
175.809000,pos,0.000000,-1.000000,Line,5,2,15,-0.004541,22
176.246000,pos,0.000000,-1.000000,Line,5,2,14,-0.004541,22
176.714000,pos,0.000000,-1.000000,Line,5,2,13,-0.004541,22
177.276000,pos,0.000000,-1.000000,Line,5,2,12,-0.004541,22
