0.0,ver,1.000000,0.000000
0.16000,lc:adehilmpambncodp,10.000000,8.000000
0.47000,ori,0.000000,0.000000,Line,1,0,0,1.585981,52
0.62000,lc:adehilmpambncodp,100.000000,8.000000
0.62000,del,0.000000,0.000000,Line,0,-19,-191,1.000000,52
0.640000,length,1.000000,0.000000,Line,1,0,0,1.585981,53
0.967000,length,1.000000,0.000000,Line,1,0,0,1.585981,54
3.650000,length,-1.000000,0.000000,Line,1,0,0,1.585981,53
3.931000,length,-1.000000,0.000000,Line,1,0,0,1.585981,52
4.134000,length,-1.000000,0.000000,Line,1,0,0,1.585981,51
4.508000,length,-1.000000,0.000000,Line,1,0,0,1.585981,50
4.758000,length,-1.000000,0.000000,Line,1,0,0,1.585981,49
5.897000,ori,0.015708,0.000000,Line,1,0,0,1.601689,49
6.661000,ori,-0.015708,0.000000,Line,1,0,0,1.585981,49
6.942000,ori,-0.015708,0.000000,Line,1,0,0,1.570273,49
7.550000,ori,-0.015708,0.000000,Line,1,0,0,1.554565,49
11.265000,ori,0.015708,0.000000,Line,1,0,0,1.570273,49
13.12000,length,-1.000000,0.000000,Line,1,0,0,1.570273,48
13.309000,length,-1.000000,0.000000,Line,1,0,0,1.570273,47
14.541000,pos,0.000000,-1.000000,Line,1,0,-1,1.570273,47
14.994000,pos,0.000000,1.000000,Line,1,0,0,1.570273,47
