0.0,ver,1.000000,0.000000
0.16000,lc:adehilmpambncodp,10.000000,8.000000
0.63000,ori,0.000000,0.000000,Arc,2,-12,-1,3.147262,49
0.63000,ori,0.000000,0.000000,Line,3,-13,-1,1.573709,52
0.78000,lc:adehilmpambncodp,100.000000,8.000000
1.88000,sel,2.000000,0.000000
2.405000,length,-1.000000,0.000000,Arc,2,-12,-1,3.147262,48
2.683000,length,-1.000000,0.000000,Arc,2,-12,-1,3.147262,47
3.240000,sel,3.000000,0.000000
4.363000,length,-1.000000,0.000000,Line,3,-13,-1,1.573709,51
4.632000,length,-1.000000,0.000000,Line,3,-13,-1,1.573709,50
5.522000,pos,1.000000,0.000000,Line,3,-12,-1,1.573709,50
5.929000,length,-1.000000,0.000000,Line,3,-12,-1,1.573709,49
6.528000,pos,0.000000,1.000000,Line,3,-12,0,1.573709,49
8.785000,sel,2.000000,0.000000
9.547000,pos,0.000000,1.000000,Arc,2,-12,0,3.147262,47
10.478000,length,-1.000000,0.000000,Arc,2,-12,0,3.147262,46
12.39000,sel,3.000000,0.000000
12.780000,length,-1.000000,0.000000,Line,3,-12,0,1.573709,48
13.846000,pos,1.000000,0.000000,Line,3,-11,0,1.573709,48
15.119000,pos,1.000000,0.000000,Line,3,-10,0,1.573709,48
15.949000,pos,-1.000000,0.000000,Line,3,-11,0,1.573709,48
17.322000,sel,2.000000,0.000000
18.157000,length,-1.000000,0.000000,Arc,2,-12,0,3.147262,45
