0.0,ver,1.000000,0.000000
0.16000,lc:adehilmpambncodp,10.000000,8.000000
0.94000,ori,0.000000,0.000000,Line,0,-1,-22,0.000000,23
0.94000,ori,0.000000,0.000000,Line,1,-11,1,1.558737,46
0.94000,ori,0.000000,0.000000,Line,2,9,-17,1.570796,12
0.109000,lc:adehilmpambncodp,100.000000,8.000000
3.884000,sel,1.000000,0.000000
4.446000,sel,2.000000,0.000000
5.398000,ori,0.015708,0.000000,Line,2,9,-17,1.586504,12
5.616000,ori,0.015708,0.000000,Line,2,9,-17,1.602212,12
5.803000,ori,0.015708,0.000000,Line,2,9,-17,1.617920,12
5.975000,ori,0.015708,0.000000,Line,2,9,-17,1.633628,12
6.162000,ori,0.015708,0.000000,Line,2,9,-17,1.649336,12
6.380000,ori,0.015708,0.000000,Line,2,9,-17,1.665044,12
6.614000,ori,0.015708,0.000000,Line,2,9,-17,1.680752,12
7.519000,pos,-0.500000,0.000000,Line,2,8,-17,1.680752,12
8.486000,ori,0.015708,0.000000,Line,2,8,-17,1.696460,12
8.752000,ori,0.015708,0.000000,Line,2,8,-17,1.712168,12
8.986000,ori,0.015708,0.000000,Line,2,8,-17,1.727876,12
9.173000,ori,0.015708,0.000000,Line,2,8,-17,1.743584,12
9.360000,ori,0.015708,0.000000,Line,2,8,-17,1.759292,12
9.547000,ori,0.015708,0.000000,Line,2,8,-17,1.775000,12
9.719000,ori,0.015708,0.000000,Line,2,8,-17,1.790707,12
9.984000,pos,-1.000000,0.000000,Line,2,7,-17,1.790707,12
10.530000,pos,1.000000,0.000000,Line,2,8,-17,1.790707,12
10.951000,ori,0.015708,0.000000,Line,2,8,-17,1.806415,12
11.138000,ori,0.015708,0.000000,Line,2,8,-17,1.822123,12
11.450000,pos,-1.000000,0.000000,Line,2,7,-17,1.822123,12
11.872000,ori,0.015708,0.000000,Line,2,7,-17,1.837831,12
12.43000,ori,0.015708,0.000000,Line,2,7,-17,1.853539,12
12.271000,ori,0.015708,0.000000,Line,2,7,-17,1.869247,12
12.489000,ori,0.015708,0.000000,Line,2,7,-17,1.884955,12
12.676000,ori,0.015708,0.000000,Line,2,7,-17,1.900663,12
12.879000,ori,0.015708,0.000000,Line,2,7,-17,1.916371,12
13.51000,ori,0.015708,0.000000,Line,2,7,-17,1.932079,12
13.269000,ori,0.015708,0.000000,Line,2,7,-17,1.947787,12
13.534000,ori,0.015708,0.000000,Line,2,7,-17,1.963495,12
13.753000,ori,0.015708,0.000000,Line,2,7,-17,1.979203,12
14.2000,pos,-1.000000,0.000000,Line,2,6,-17,1.979203,12
15.110000,pos,1.000000,0.000000,Line,2,7,-17,1.979203,12
15.968000,pos,-1.000000,0.000000,Line,2,6,-17,1.979203,12
16.592000,ori,0.015708,0.000000,Line,2,6,-17,1.994911,12
16.826000,ori,0.015708,0.000000,Line,2,6,-17,2.010619,12
17.13000,ori,0.015708,0.000000,Line,2,6,-17,2.026327,12
17.263000,ori,0.015708,0.000000,Line,2,6,-17,2.042035,12
17.590000,ori,0.015708,0.000000,Line,2,6,-17,2.057743,12
18.526000,ori,0.015708,0.000000,Line,2,6,-17,2.073451,12
19.712000,ori,0.015708,0.000000,Line,2,6,-17,2.089159,12
20.180000,pos,0.000000,1.000000,Line,2,6,-16,2.089159,12
28.183000,pos,0.000000,1.000000,Line,2,6,-15,2.089159,12
28.900000,pos,0.000000,-1.000000,Line,2,6,-16,2.089159,12
30.289000,pos,0.000000,-1.000000,Line,2,6,-17,2.089159,12
31.365000,pos,-1.000000,0.000000,Line,2,5,-17,2.089159,12
32.36000,pos,1.000000,0.000000,Line,2,6,-17,2.089159,12
32.410000,pos,1.000000,0.000000,Line,2,7,-17,2.089159,12
33.128000,pos,-1.000000,0.000000,Line,2,6,-17,2.089159,12
35.766000,pos,0.000000,1.000000,Line,2,6,-16,2.089159,12
