0.0,ver,1.000000,0.000000
0.16000,lc:adehilmpambncodp,10.000000,8.000000
0.63000,ori,0.000000,0.000000,Arc,0,-5,13,3.033748,18
0.63000,ori,0.000000,0.000000,Line,1,-5,0,1.567573,48
0.63000,ori,0.000000,0.000000,Arc,2,-5,-10,3.058291,24
0.78000,lc:adehilmpambncodp,100.000000,8.000000
17.539000,add,1.000000,4.000000
19.192000,pos,-1.000000,0.000000,Line,3,-1,0,1.570796,39
20.66000,pos,-1.000000,0.000000,Line,3,-2,0,1.570796,39
20.238000,pos,-1.000000,0.000000,Line,3,-3,0,1.570796,39
20.378000,pos,-1.000000,0.000000,Line,3,-4,0,1.570796,39
20.534000,pos,-1.000000,0.000000,Line,3,-5,0,1.570796,39
20.690000,pos,-1.000000,0.000000,Line,3,-6,0,1.570796,39
20.815000,pos,-1.000000,0.000000,Line,3,-7,0,1.570796,39
20.971000,pos,-1.000000,0.000000,Line,3,-8,0,1.570796,39
21.142000,pos,-1.000000,0.000000,Line,3,-9,0,1.570796,39
21.345000,pos,-1.000000,0.000000,Line,3,-10,0,1.570796,39
21.501000,pos,-1.000000,0.000000,Line,3,-11,0,1.570796,39
21.688000,pos,-1.000000,0.000000,Line,3,-12,0,1.570796,39
22.266000,pos,-1.000000,0.000000,Line,3,-13,0,1.570796,39
23.826000,length,1.000000,0.000000,Line,3,-13,0,1.570796,40
24.28000,length,1.000000,0.000000,Line,3,-13,0,1.570796,41
24.233000,length,1.000000,0.000000,Line,3,-13,0,1.570796,42
24.420000,length,1.000000,0.000000,Line,3,-13,0,1.570796,43
24.592000,length,1.000000,0.000000,Line,3,-13,0,1.570796,44
24.795000,length,1.000000,0.000000,Line,3,-13,0,1.570796,45
24.998000,length,1.000000,0.000000,Line,3,-13,0,1.570796,46
25.200000,length,1.000000,0.000000,Line,3,-13,0,1.570796,47
