0.0,ver,1.000000,0.000000
0.15000,lc:adehilmpambncodp,10.000000,8.000000
0.78000,ori,0.000000,0.000000,Line,0,8,4,1.564505,40
0.78000,ori,0.000000,0.000000,Line,1,0,5,1.130973,39
0.78000,ori,0.000000,0.000000,Arc,2,0,-14,1.330726,16
0.78000,lc:adehilmpambncodp,100.000000,8.000000
0.515000,sel,1.000000,0.000000
1.107000,pos,-1.000000,0.000000,Line,1,-1,5,1.130973,39
1.310000,pos,-1.000000,0.000000,Line,1,-2,5,1.130973,39
1.451000,pos,-1.000000,0.000000,Line,1,-3,5,1.130973,39
1.622000,pos,-1.000000,0.000000,Line,1,-4,5,1.130973,39
1.778000,pos,-1.000000,0.000000,Line,1,-5,5,1.130973,39
1.919000,pos,-1.000000,0.000000,Line,1,-6,5,1.130973,39
2.106000,pos,-1.000000,0.000000,Line,1,-7,5,1.130973,39
2.277000,ori,-0.015708,0.000000,Line,1,-7,5,1.115265,39
2.465000,ori,-0.015708,0.000000,Line,1,-7,5,1.099557,39
2.636000,ori,-0.015708,0.000000,Line,1,-7,5,1.083849,39
2.808000,ori,-0.015708,0.000000,Line,1,-7,5,1.068141,39
3.89000,ori,0.015708,0.000000,Line,1,-7,5,1.083849,39
3.276000,ori,0.015708,0.000000,Line,1,-7,5,1.099557,39
3.447000,ori,0.015708,0.000000,Line,1,-7,5,1.115265,39
3.603000,ori,0.015708,0.000000,Line,1,-7,5,1.130973,39
3.759000,ori,0.015708,0.000000,Line,1,-7,5,1.146681,39
3.915000,ori,0.015708,0.000000,Line,1,-7,5,1.162389,39
3.978000,length,-1.000000,0.000000,Line,1,-7,5,1.162389,38
4.71000,ori,0.015708,0.000000,Line,1,-7,5,1.178097,38
4.165000,length,-1.000000,0.000000,Line,1,-7,5,1.178097,37
4.305000,length,-1.000000,0.000000,Line,1,-7,5,1.178097,36
4.399000,ori,0.015708,0.000000,Line,1,-7,5,1.193805,36
4.477000,length,-1.000000,0.000000,Line,1,-7,5,1.193805,35
4.586000,ori,0.015708,0.000000,Line,1,-7,5,1.209513,35
4.602000,length,-1.000000,0.000000,Line,1,-7,5,1.209513,34
4.695000,length,-1.000000,0.000000,Line,1,-7,5,1.209513,33
4.742000,ori,0.015708,0.000000,Line,1,-7,5,1.225221,33
4.883000,length,-1.000000,0.000000,Line,1,-7,5,1.225221,32
4.929000,ori,0.015708,0.000000,Line,1,-7,5,1.240929,32
4.992000,length,-1.000000,0.000000,Line,1,-7,5,1.240929,31
5.117000,ori,0.015708,0.000000,Line,1,-7,5,1.256637,31
5.195000,length,-1.000000,0.000000,Line,1,-7,5,1.256637,30
5.351000,length,-1.000000,0.000000,Line,1,-7,5,1.256637,29
5.351000,ori,0.015708,0.000000,Line,1,-7,5,1.272345,29
5.444000,length,-1.000000,0.000000,Line,1,-7,5,1.272345,28
5.538000,ori,0.015708,0.000000,Line,1,-7,5,1.288053,28
5.616000,length,-1.000000,0.000000,Line,1,-7,5,1.288053,27
5.772000,length,-1.000000,0.000000,Line,1,-7,5,1.288053,26
5.772000,ori,0.015708,0.000000,Line,1,-7,5,1.303761,26
5.912000,length,-1.000000,0.000000,Line,1,-7,5,1.303761,25
5.912000,ori,0.015708,0.000000,Line,1,-7,5,1.319469,25
6.84000,ori,0.015708,0.000000,Line,1,-7,5,1.335177,25
6.255000,ori,0.015708,0.000000,Line,1,-7,5,1.350884,25
6.411000,ori,0.015708,0.000000,Line,1,-7,5,1.366592,25
6.567000,ori,0.015708,0.000000,Line,1,-7,5,1.382300,25
6.755000,ori,0.015708,0.000000,Line,1,-7,5,1.398008,25
6.989000,pos,0.000000,-1.000000,Line,1,-7,4,1.398008,25
7.145000,pos,0.000000,-1.000000,Line,1,-7,3,1.398008,25
7.145000,ori,0.015708,0.000000,Line,1,-7,3,1.413716,25
7.301000,pos,0.000000,-1.000000,Line,1,-7,2,1.413716,25
7.363000,ori,0.015708,0.000000,Line,1,-7,2,1.429424,25
7.519000,ori,0.015708,0.000000,Line,1,-7,2,1.445132,25
7.691000,ori,0.015708,0.000000,Line,1,-7,2,1.460840,25
7.862000,pos,0.000000,-1.000000,Line,1,-7,1,1.460840,25
7.862000,ori,0.015708,0.000000,Line,1,-7,1,1.476548,25
8.34000,pos,0.000000,-1.000000,Line,1,-7,0,1.476548,25
8.34000,ori,0.015708,0.000000,Line,1,-7,0,1.492256,25
8.205000,pos,0.000000,-1.000000,Line,1,-7,-1,1.492256,25
8.299000,ori,0.015708,0.000000,Line,1,-7,-1,1.507964,25
8.502000,ori,0.015708,0.000000,Line,1,-7,-1,1.523672,25
8.783000,ori,0.015708,0.000000,Line,1,-7,-1,1.539380,25
9.17000,ori,0.015708,0.000000,Line,1,-7,-1,1.555088,25
9.251000,pos,-1.000000,0.000000,Line,1,-8,-1,1.555088,25
9.734000,pos,-1.000000,0.000000,Line,1,-9,-1,1.555088,25
10.311000,pos,1.000000,0.000000,Line,1,-8,-1,1.555088,25
10.514000,ori,0.015708,0.000000,Line,1,-8,-1,1.570796,25
10.935000,pos,0.000000,-1.000000,Line,1,-8,-2,1.570796,25
11.123000,pos,0.000000,-1.000000,Line,1,-8,-3,1.570796,25
11.263000,pos,0.000000,-1.000000,Line,1,-8,-4,1.570796,25
11.419000,pos,0.000000,-1.000000,Line,1,-8,-5,1.570796,25
11.575000,pos,0.000000,-1.000000,Line,1,-8,-6,1.570796,25
11.731000,pos,0.000000,-1.000000,Line,1,-8,-7,1.570796,25
11.887000,pos,0.000000,-1.000000,Line,1,-8,-8,1.570796,25
11.918000,length,-1.000000,0.000000,Line,1,-8,-8,1.570796,24
12.59000,pos,0.000000,-1.000000,Line,1,-8,-9,1.570796,24
12.90000,length,-1.000000,0.000000,Line,1,-8,-9,1.570796,23
12.199000,pos,0.000000,-1.000000,Line,1,-8,-10,1.570796,23
12.230000,length,-1.000000,0.000000,Line,1,-8,-10,1.570796,22
12.355000,pos,0.000000,-1.000000,Line,1,-8,-11,1.570796,22
12.386000,length,-1.000000,0.000000,Line,1,-8,-11,1.570796,21
12.527000,pos,0.000000,-1.000000,Line,1,-8,-12,1.570796,21
12.542000,length,-1.000000,0.000000,Line,1,-8,-12,1.570796,20
12.667000,pos,0.000000,-1.000000,Line,1,-8,-13,1.570796,20
12.729000,length,-1.000000,0.000000,Line,1,-8,-13,1.570796,19
12.823000,pos,0.000000,-1.000000,Line,1,-8,-14,1.570796,19
13.57000,pos,0.000000,-1.000000,Line,1,-8,-15,1.570796,19
13.229000,pos,0.000000,-1.000000,Line,1,-8,-16,1.570796,19
13.463000,length,-1.000000,0.000000,Line,1,-8,-16,1.570796,18
13.681000,length,-1.000000,0.000000,Line,1,-8,-16,1.570796,17
13.837000,length,-1.000000,0.000000,Line,1,-8,-16,1.570796,16
14.9000,length,-1.000000,0.000000,Line,1,-8,-16,1.570796,15
14.196000,length,-1.000000,0.000000,Line,1,-8,-16,1.570796,14
14.352000,pos,-1.000000,0.000000,Line,1,-9,-16,1.570796,14
14.711000,pos,-1.000000,0.000000,Line,1,-10,-16,1.570796,14
15.23000,pos,0.000000,-1.000000,Line,1,-10,-17,1.570796,14
15.381000,length,-1.000000,0.000000,Line,1,-10,-17,1.570796,13
15.818000,pos,1.000000,0.000000,Line,1,-9,-17,1.570796,13
16.241000,pos,1.000000,0.000000,Line,1,-8,-17,1.570796,13
17.879000,length,-1.000000,0.000000,Line,1,-8,-17,1.570796,12
18.363000,pos,0.000000,-1.000000,Line,1,-8,-18,1.570796,12
19.814000,length,-1.000000,0.000000,Line,1,-8,-18,1.570796,11
20.188000,pos,0.000000,-1.000000,Line,1,-8,-19,1.570796,11
20.890000,pos,0.000000,-1.000000,Line,1,-8,-20,1.570796,11
22.622000,length,-1.000000,0.000000,Line,1,-8,-20,1.570796,10
23.199000,length,-1.000000,0.000000,Line,1,-8,-20,1.570796,9
23.636000,pos,0.000000,-1.000000,Line,1,-8,-21,1.570796,9
24.260000,length,-1.000000,0.000000,Line,1,-8,-21,1.570796,8
24.587000,length,-1.000000,0.000000,Line,1,-8,-21,1.570796,7
25.87000,pos,0.000000,1.000000,Line,1,-8,-20,1.570796,7
25.757000,pos,0.000000,-1.000000,Line,1,-8,-21,1.570796,7
26.803000,length,1.000000,0.000000,Line,1,-8,-21,1.570796,8
27.239000,pos,0.000000,1.000000,Line,1,-8,-20,1.570796,8
27.255000,length,1.000000,0.000000,Line,1,-8,-20,1.570796,9
27.489000,pos,0.000000,1.000000,Line,1,-8,-19,1.570796,9
27.848000,pos,0.000000,1.000000,Line,1,-8,-18,1.570796,9
28.363000,pos,0.000000,-1.000000,Line,1,-8,-19,1.570796,9
30.562000,length,-1.000000,0.000000,Line,1,-8,-19,1.570796,8
31.77000,length,1.000000,0.000000,Line,1,-8,-19,1.570796,9
31.467000,length,1.000000,0.000000,Line,1,-8,-19,1.570796,10
31.763000,length,1.000000,0.000000,Line,1,-8,-19,1.570796,11
32.185000,length,1.000000,0.000000,Line,1,-8,-19,1.570796,12
32.434000,length,1.000000,0.000000,Line,1,-8,-19,1.570796,13
32.543000,pos,0.000000,1.000000,Line,1,-8,-18,1.570796,13
32.715000,pos,0.000000,1.000000,Line,1,-8,-17,1.570796,13
32.965000,length,1.000000,0.000000,Line,1,-8,-17,1.570796,14
33.682000,length,1.000000,0.000000,Line,1,-8,-17,1.570796,15
34.293000,pos,0.000000,1.000000,Line,1,-8,-16,1.570796,15
36.726000,length,1.000000,0.000000,Line,1,-8,-16,1.570796,16
37.163000,pos,0.000000,1.000000,Line,1,-8,-15,1.570796,16
37.366000,pos,0.000000,1.000000,Line,1,-8,-14,1.570796,16
37.553000,pos,0.000000,1.000000,Line,1,-8,-13,1.570796,16
37.740000,pos,0.000000,1.000000,Line,1,-8,-12,1.570796,16
38.99000,pos,0.000000,1.000000,Line,1,-8,-11,1.570796,16
38.286000,pos,0.000000,1.000000,Line,1,-8,-10,1.570796,16
38.520000,pos,0.000000,1.000000,Line,1,-8,-9,1.570796,16
38.910000,pos,0.000000,1.000000,Line,1,-8,-8,1.570796,16
39.316000,pos,0.000000,1.000000,Line,1,-8,-7,1.570796,16
40.221000,pos,0.000000,-1.000000,Line,1,-8,-8,1.570796,16
44.901000,pos,0.000000,-1.000000,Line,1,-8,-9,1.570796,16
46.697000,pos,0.000000,-1.000000,Line,1,-8,-10,1.570796,16
46.915000,pos,0.000000,-1.000000,Line,1,-8,-11,1.570796,16
47.102000,pos,0.000000,-1.000000,Line,1,-8,-12,1.570796,16
47.227000,pos,0.000000,-1.000000,Line,1,-8,-13,1.570796,16
47.492000,pos,0.000000,-1.000000,Line,1,-8,-14,1.570796,16
47.617000,pos,0.000000,-1.000000,Line,1,-8,-15,1.570796,16
47.804000,pos,0.000000,-1.000000,Line,1,-8,-16,1.570796,16
