0.0,ver,1.000000,0.000000
0.31000,lc:adehilmpambncodp,10.000000,8.000000
0.103000,ori,0.000000,0.000000,Line,0,0,0,2.000000,49
0.103000,ori,0.000000,0.000000,Line,1,11,0,1.571009,47
0.103000,ori,0.000000,0.000000,Line,2,-19,0,1.570796,47
0.103000,ori,0.000000,0.000000,Line,3,-11,0,1.580581,48
0.103000,lc:adehilmpambncodp,100.000000,8.000000
0.836000,sel,1.000000,0.000000
1.168000,sel,2.000000,0.000000
2.193000,pos,1.000000,0.000000,Line,2,-18,0,1.570796,47
2.409000,pos,1.000000,0.000000,Line,2,-17,0,1.570796,47
2.594000,pos,1.000000,0.000000,Line,2,-16,0,1.570796,47
2.780000,pos,1.000000,0.000000,Line,2,-15,0,1.570796,47
2.926000,pos,1.000000,0.000000,Line,2,-14,0,1.570796,47
3.112000,pos,1.000000,0.000000,Line,2,-13,0,1.570796,47
3.299000,pos,1.000000,0.000000,Line,2,-12,0,1.570796,47
3.471000,pos,1.000000,0.000000,Line,2,-11,0,1.570796,47
3.673000,pos,1.000000,0.000000,Line,2,-10,0,1.570796,47
3.845000,pos,1.000000,0.000000,Line,2,-9,0,1.570796,47
4.32000,pos,1.000000,0.000000,Line,2,-8,0,1.570796,47
4.178000,pos,1.000000,0.000000,Line,2,-7,0,1.570796,47
4.443000,pos,1.000000,0.000000,Line,2,-6,0,1.570796,47
4.614000,pos,1.000000,0.000000,Line,2,-5,0,1.570796,47
4.802000,pos,1.000000,0.000000,Line,2,-4,0,1.570796,47
4.958000,pos,1.000000,0.000000,Line,2,-3,0,1.570796,47
5.150000,pos,1.000000,0.000000,Line,2,-2,0,1.570796,47
5.319000,pos,1.000000,0.000000,Line,2,-1,0,1.570796,47
5.503000,pos,1.000000,0.000000,Line,2,0,0,1.570796,47
5.736000,pos,1.000000,0.000000,Line,2,1,0,1.570796,47
5.905000,pos,1.000000,0.000000,Line,2,2,0,1.570796,47
6.90000,pos,1.000000,0.000000,Line,2,3,0,1.570796,47
7.640000,ori,0.101243,0.000000,Line,2,3,0,1.672039,47
7.656000,ori,0.064427,0.000000,Line,2,3,0,1.736466,47
7.678000,ori,0.070563,0.000000,Line,2,3,0,1.807029,47
7.694000,ori,0.046019,0.000000,Line,2,3,0,1.853048,47
7.709000,ori,0.012272,0.000000,Line,2,3,0,1.865320,47
7.756000,ori,0.003068,0.000000,Line,2,3,0,1.868388,47
7.794000,ori,0.003068,0.000000,Line,2,3,0,1.871456,47
7.810000,ori,0.009204,0.000000,Line,2,3,0,1.880660,47
7.826000,ori,0.027612,0.000000,Line,2,3,0,1.908272,47
7.841000,ori,0.036816,0.000000,Line,2,3,0,1.945087,47
7.857000,ori,0.021476,0.000000,Line,2,3,0,1.966563,47
7.878000,ori,0.021476,0.000000,Line,2,3,0,1.988039,47
7.894000,ori,0.009204,0.000000,Line,2,3,0,1.997243,47
8.380000,sel,3.000000,0.000000
9.515000,sel,0.000000,0.000000
9.917000,sel,1.000000,0.000000
10.318000,sel,2.000000,0.000000
10.850000,pos,0.000000,1.000000,Line,2,3,1,1.997243,47
11.67000,pos,0.000000,1.000000,Line,2,3,2,1.997243,47
11.253000,pos,0.000000,1.000000,Line,2,3,3,1.997243,47
11.406000,pos,0.000000,1.000000,Line,2,3,4,1.997243,47
11.568000,pos,0.000000,1.000000,Line,2,3,5,1.997243,47
11.754000,pos,0.000000,1.000000,Line,2,3,6,1.997243,47
12.878000,length,-1.000000,0.000000,Line,2,3,6,1.997243,46
13.95000,length,-1.000000,0.000000,Line,2,3,6,1.997243,45
13.280000,length,-1.000000,0.000000,Line,2,3,6,1.997243,44
13.427000,length,-1.000000,0.000000,Line,2,3,6,1.997243,43
13.596000,length,-1.000000,0.000000,Line,2,3,6,1.997243,42
13.781000,length,-1.000000,0.000000,Line,2,3,6,1.997243,41
13.981000,length,-1.000000,0.000000,Line,2,3,6,1.997243,40
14.530000,pos,0.000000,1.000000,Line,2,3,7,1.997243,40
15.856000,pos,1.000000,0.000000,Line,2,4,7,1.997243,40
16.284000,length,-1.000000,0.000000,Line,2,4,7,1.997243,39
16.705000,length,-1.000000,0.000000,Line,2,4,7,1.997243,38
17.126000,length,-1.000000,0.000000,Line,2,4,7,1.997243,37
17.693000,length,-1.000000,0.000000,Line,2,4,7,1.997243,36
18.326000,length,-1.000000,0.000000,Line,2,4,7,1.997243,35
18.727000,pos,0.000000,1.000000,Line,2,4,8,1.997243,35
20.216000,pos,-1.000000,0.000000,Line,2,3,8,1.997243,35
20.950000,pos,1.000000,0.000000,Line,2,4,8,1.997243,35
21.620000,pos,0.000000,1.000000,Line,2,4,9,1.997243,35
22.338000,pos,-1.000000,0.000000,Line,2,3,9,1.997243,35
23.24000,pos,0.000000,-1.000000,Line,2,3,8,1.997243,35
23.526000,pos,1.000000,0.000000,Line,2,4,8,1.997243,35
27.91000,length,-1.000000,0.000000,Line,2,4,8,1.997243,34
27.837000,pos,0.000000,1.000000,Line,2,4,9,1.997243,34
29.230000,pos,-1.000000,0.000000,Line,2,3,9,1.997243,34
29.829000,pos,1.000000,0.000000,Line,2,4,9,1.997243,34
30.284000,pos,0.000000,-1.000000,Line,2,4,8,1.997243,34
31.134000,pos,1.000000,0.000000,Line,2,5,8,1.997243,34
33.355000,pos,0.000000,1.000000,Line,2,5,9,1.997243,34
35.700000,length,-1.000000,0.000000,Line,2,5,9,1.997243,33
36.133000,length,-1.000000,0.000000,Line,2,5,9,1.997243,32
37.168000,length,-1.000000,0.000000,Line,2,5,9,1.997243,31
37.738000,pos,0.000000,1.000000,Line,2,5,10,1.997243,31
38.324000,pos,-1.000000,0.000000,Line,2,4,10,1.997243,31
