0.0,ver,1.000000,0.000000
0.15000,lc:adehilmpambncodp,10.000000,8.000000
0.78000,ori,0.000000,0.000000,Line,0,11,-14,1.564505,20
0.78000,ori,0.000000,0.000000,Line,1,4,-4,3.138058,18
0.78000,ori,0.000000,0.000000,Line,2,4,4,-0.006504,17
0.78000,ori,0.000000,0.000000,Arc,3,5,0,0.000000,45
0.78000,lc:adehilmpambncodp,100.000000,8.000000
6.21000,add,1.000000,5.000000
7.20000,pos,1.000000,0.000000,Line,4,1,0,1.570796,39
7.35000,pos,3.000000,0.000000,Line,4,4,0,1.570796,39
7.51000,pos,2.000000,0.000000,Line,4,6,0,1.570796,39
7.66000,pos,2.000000,0.000000,Line,4,8,0,1.570796,39
7.82000,pos,3.000000,0.000000,Line,4,11,0,1.570796,39
7.98000,pos,1.000000,0.000000,Line,4,12,0,1.570796,39
7.113000,pos,1.000000,0.000000,Line,4,13,0,1.570796,39
7.488000,pos,0.000000,-0.500000,Line,4,13,0,1.570796,39
7.503000,pos,0.500000,0.000000,Line,4,13,0,1.570796,39
7.534000,pos,0.000000,-0.500000,Line,4,13,-1,1.570796,39
7.550000,pos,0.500000,0.000000,Line,4,14,-1,1.570796,39
7.597000,pos,0.500000,0.000000,Line,4,14,-1,1.570796,39
7.675000,pos,0.000000,-0.500000,Line,4,14,-1,1.570796,39
7.706000,pos,0.000000,-0.500000,Line,4,14,-2,1.570796,39
7.722000,pos,0.500000,0.000000,Line,4,15,-2,1.570796,39
7.987000,pos,0.500000,-0.500000,Line,4,15,-2,1.570796,39
8.2000,pos,1.000000,0.000000,Line,4,16,-2,1.570796,39
8.18000,pos,0.500000,-0.500000,Line,4,17,-3,1.570796,39
8.34000,pos,0.500000,-0.500000,Line,4,17,-3,1.570796,39
8.268000,pos,0.000000,-0.500000,Line,4,17,-4,1.570796,39
8.283000,pos,0.500000,0.000000,Line,4,18,-4,1.570796,39
9.625000,length,-1.000000,0.000000,Line,4,18,-4,1.570796,38
9.828000,length,-1.000000,0.000000,Line,4,18,-4,1.570796,37
10.15000,length,-1.000000,0.000000,Line,4,18,-4,1.570796,36
10.186000,length,-1.000000,0.000000,Line,4,18,-4,1.570796,35
10.358000,length,-1.000000,0.000000,Line,4,18,-4,1.570796,34
10.498000,pos,0.000000,-1.000000,Line,4,18,-5,1.570796,34
10.717000,pos,0.000000,-1.000000,Line,4,18,-6,1.570796,34
10.904000,pos,0.000000,-1.000000,Line,4,18,-7,1.570796,34
11.481000,length,-1.000000,0.000000,Line,4,18,-7,1.570796,33
11.793000,length,-1.000000,0.000000,Line,4,18,-7,1.570796,32
12.246000,pos,0.000000,-1.000000,Line,4,18,-8,1.570796,32
12.901000,length,-1.000000,0.000000,Line,4,18,-8,1.570796,31
13.494000,length,-1.000000,0.000000,Line,4,18,-8,1.570796,30
13.728000,length,-1.000000,0.000000,Line,4,18,-8,1.570796,29
14.86000,pos,0.000000,-1.000000,Line,4,18,-9,1.570796,29
15.787000,sel,0.000000,0.000000
16.208000,sel,1.000000,0.000000
16.598000,sel,2.000000,0.000000
17.706000,length,1.000000,0.000000,Line,2,4,4,-0.006504,18
17.908000,length,1.000000,0.000000,Line,2,4,4,-0.006504,19
18.64000,length,1.000000,0.000000,Line,2,4,4,-0.006504,20
18.236000,length,1.000000,0.000000,Line,2,4,4,-0.006504,21
18.423000,pos,1.000000,0.000000,Line,2,5,4,-0.006504,21
18.673000,pos,1.000000,0.000000,Line,2,6,4,-0.006504,21
20.389000,length,1.000000,0.000000,Line,2,6,4,-0.006504,22
21.77000,pos,0.000000,1.000000,Line,2,6,5,-0.006504,22
22.122000,pos,-1.000000,0.000000,Line,2,5,5,-0.006504,22
22.497000,pos,0.000000,-1.000000,Line,2,5,4,-0.006504,22
23.199000,pos,1.000000,0.000000,Line,2,6,4,-0.006504,22
24.821000,length,1.000000,0.000000,Line,2,6,4,-0.006504,23
25.679000,pos,1.000000,0.000000,Line,2,7,4,-0.006504,23
