0.0,ver,1.000000,0.000000
0.16000,lc:adehilmpambncodp,10.000000,8.000000
0.78000,ori,0.000000,0.000000,Line,0,5,11,1.176715,27
0.78000,ori,0.000000,0.000000,Line,1,0,-13,1.582913,22
0.78000,ori,0.000000,0.000000,Line,2,-5,10,1.955208,29
0.78000,lc:adehilmpambncodp,100.000000,8.000000
13.73000,add,1.000000,4.000000
14.352000,pos,-1.000000,0.000000,Line,3,-1,0,1.570796,39
14.539000,pos,-1.000000,0.000000,Line,3,-2,0,1.570796,39
14.695000,pos,-1.000000,0.000000,Line,3,-3,0,1.570796,39
14.851000,pos,-1.000000,0.000000,Line,3,-4,0,1.570796,39
15.7000,pos,-1.000000,0.000000,Line,3,-5,0,1.570796,39
15.132000,ori,0.015708,0.000000,Line,3,-5,0,1.586504,39
15.413000,ori,0.015708,0.000000,Line,3,-5,0,1.602212,39
15.616000,ori,0.015708,0.000000,Line,3,-5,0,1.617920,39
15.819000,ori,0.015708,0.000000,Line,3,-5,0,1.633628,39
16.193000,ori,0.015708,0.000000,Line,3,-5,0,1.649336,39
16.380000,ori,0.015708,0.000000,Line,3,-5,0,1.665044,39
16.645000,ori,0.015708,0.000000,Line,3,-5,0,1.680752,39
17.769000,ori,0.015708,0.000000,Line,3,-5,0,1.696460,39
17.893000,ori,0.015708,0.000000,Line,3,-5,0,1.712168,39
18.143000,ori,0.015708,0.000000,Line,3,-5,0,1.727876,39
18.486000,ori,0.015708,0.000000,Line,3,-5,0,1.743584,39
18.705000,ori,0.015708,0.000000,Line,3,-5,0,1.759292,39
18.861000,ori,0.015708,0.000000,Line,3,-5,0,1.775000,39
19.48000,ori,0.015708,0.000000,Line,3,-5,0,1.790708,39
19.251000,ori,0.015708,0.000000,Line,3,-5,0,1.806416,39
19.422000,ori,0.015708,0.000000,Line,3,-5,0,1.822124,39
19.656000,ori,0.015708,0.000000,Line,3,-5,0,1.837832,39
20.155000,ori,0.015708,0.000000,Line,3,-5,0,1.853540,39
20.389000,ori,0.015708,0.000000,Line,3,-5,0,1.869248,39
20.608000,ori,0.015708,0.000000,Line,3,-5,0,1.884956,39
20.795000,ori,0.015708,0.000000,Line,3,-5,0,1.900664,39
20.998000,ori,0.015708,0.000000,Line,3,-5,0,1.916372,39
21.325000,ori,0.015708,0.000000,Line,3,-5,0,1.932079,39
21.559000,ori,0.015708,0.000000,Line,3,-5,0,1.947787,39
21.793000,ori,0.015708,0.000000,Line,3,-5,0,1.963495,39
22.511000,length,-1.000000,0.000000,Line,3,-5,0,1.963495,38
22.651000,length,-1.000000,0.000000,Line,3,-5,0,1.963495,37
22.823000,length,-1.000000,0.000000,Line,3,-5,0,1.963495,36
23.10000,pos,-1.000000,0.000000,Line,3,-6,0,1.963495,36
23.431000,pos,-1.000000,0.000000,Line,3,-7,0,1.963495,36
23.650000,length,-1.000000,0.000000,Line,3,-7,0,1.963495,35
23.821000,length,-1.000000,0.000000,Line,3,-7,0,1.963495,34
23.993000,length,-1.000000,0.000000,Line,3,-7,0,1.963495,33
24.196000,pos,0.000000,1.000000,Line,3,-7,1,1.963495,33
24.383000,pos,0.000000,1.000000,Line,3,-7,2,1.963495,33
24.539000,pos,0.000000,1.000000,Line,3,-7,3,1.963495,33
24.789000,pos,-1.000000,0.000000,Line,3,-8,3,1.963495,33
24.991000,pos,-1.000000,0.000000,Line,3,-9,3,1.963495,33
25.241000,length,-1.000000,0.000000,Line,3,-9,3,1.963495,32
25.444000,length,-1.000000,0.000000,Line,3,-9,3,1.963495,31
25.678000,pos,0.000000,1.000000,Line,3,-9,4,1.963495,31
25.849000,pos,0.000000,1.000000,Line,3,-9,5,1.963495,31
26.37000,pos,0.000000,1.000000,Line,3,-9,6,1.963495,31
26.380000,pos,0.000000,1.000000,Line,3,-9,7,1.963495,31
26.551000,pos,0.000000,1.000000,Line,3,-9,8,1.963495,31
26.863000,pos,-1.000000,0.000000,Line,3,-10,8,1.963495,31
27.97000,pos,-1.000000,0.000000,Line,3,-11,8,1.963495,31
27.378000,length,-1.000000,0.000000,Line,3,-11,8,1.963495,30
27.565000,length,-1.000000,0.000000,Line,3,-11,8,1.963495,29
27.721000,length,-1.000000,0.000000,Line,3,-11,8,1.963495,28
27.893000,length,-1.000000,0.000000,Line,3,-11,8,1.963495,27
28.49000,length,-1.000000,0.000000,Line,3,-11,8,1.963495,26
28.423000,pos,1.000000,0.000000,Line,3,-10,8,1.963495,26
29.47000,length,-1.000000,0.000000,Line,3,-10,8,1.963495,25
29.640000,pos,0.000000,1.000000,Line,3,-10,9,1.963495,25
30.561000,pos,-1.000000,0.000000,Line,3,-11,9,1.963495,25
31.138000,pos,-1.000000,0.000000,Line,3,-12,9,1.963495,25
34.133000,pos,1.000000,0.000000,Line,3,-11,9,1.963495,25
34.336000,pos,1.000000,0.000000,Line,3,-10,9,1.963495,25
34.632000,pos,1.000000,0.000000,Line,3,-9,9,1.963495,25
35.147000,pos,1.000000,0.000000,Line,3,-8,9,1.963495,25
36.629000,length,1.000000,0.000000,Line,3,-8,9,1.963495,26
37.409000,pos,0.000000,1.000000,Line,3,-8,10,1.963495,26
37.893000,pos,-1.000000,0.000000,Line,3,-9,10,1.963495,26
39.31000,pos,0.000000,-1.000000,Line,3,-9,9,1.963495,26
39.624000,pos,-1.000000,0.000000,Line,3,-10,9,1.963495,26
39.983000,pos,-1.000000,0.000000,Line,3,-11,9,1.963495,26
40.139000,pos,-1.000000,0.000000,Line,3,-12,9,1.963495,26
40.326000,pos,-1.000000,0.000000,Line,3,-13,9,1.963495,26
40.747000,pos,-1.000000,0.000000,Line,3,-14,9,1.963495,26
41.309000,pos,1.000000,0.000000,Line,3,-13,9,1.963495,26
41.668000,pos,1.000000,0.000000,Line,3,-12,9,1.963495,26
