0.0,ver,1.000000,0.000000
0.10000,lc:adehilmpambncodp,10.000000,8.000000
0.70000,ori,0.000000,0.000000,Line,0,0,0,1.570273,47
0.70000,ori,0.000000,0.000000,Line,1,-1,2,1.130973,47
0.81000,lc:adehilmpambncodp,100.000000,8.000000
0.766000,sel,1.000000,0.000000
1.620000,pos,-1.000000,0.000000,Line,1,-2,2,1.130973,47
2.802000,length,-1.000000,0.000000,Line,1,-2,2,1.130973,46
2.995000,length,-1.000000,0.000000,Line,1,-2,2,1.130973,45
3.162000,length,-1.000000,0.000000,Line,1,-2,2,1.130973,44
3.396000,length,-1.000000,0.000000,Line,1,-2,2,1.130973,43
3.575000,length,-1.000000,0.000000,Line,1,-2,2,1.130973,42
3.780000,pos,0.000000,-1.000000,Line,1,-2,1,1.130973,42
3.963000,length,-1.000000,0.000000,Line,1,-2,1,1.130973,41
4.176000,length,-1.000000,0.000000,Line,1,-2,1,1.130973,40
4.380000,length,-1.000000,0.000000,Line,1,-2,1,1.130973,39
4.550000,length,-1.000000,0.000000,Line,1,-2,1,1.130973,38
4.709000,length,-1.000000,0.000000,Line,1,-2,1,1.130973,37
4.862000,length,-1.000000,0.000000,Line,1,-2,1,1.130973,36
5.31000,length,-1.000000,0.000000,Line,1,-2,1,1.130973,35
5.116000,pos,0.000000,-1.000000,Line,1,-2,0,1.130973,35
5.301000,pos,0.000000,-1.000000,Line,1,-2,-1,1.130973,35
5.450000,pos,0.000000,-1.000000,Line,1,-2,-2,1.130973,35
5.650000,pos,0.000000,-1.000000,Line,1,-2,-3,1.130973,35
5.770000,pos,0.000000,-1.000000,Line,1,-2,-4,1.130973,35
5.989000,pos,-1.000000,0.000000,Line,1,-3,-4,1.130973,35
6.166000,pos,-1.000000,0.000000,Line,1,-4,-4,1.130973,35
6.380000,length,-1.000000,0.000000,Line,1,-4,-4,1.130973,34
6.590000,length,-1.000000,0.000000,Line,1,-4,-4,1.130973,33
6.787000,length,-1.000000,0.000000,Line,1,-4,-4,1.130973,32
6.915000,pos,0.000000,-1.000000,Line,1,-4,-5,1.130973,32
7.106000,pos,0.000000,-1.000000,Line,1,-4,-6,1.130973,32
7.286000,pos,0.000000,-1.000000,Line,1,-4,-7,1.130973,32
7.442000,pos,-1.000000,0.000000,Line,1,-5,-7,1.130973,32
7.643000,pos,-1.000000,0.000000,Line,1,-6,-7,1.130973,32
7.837000,pos,0.000000,-1.000000,Line,1,-6,-8,1.130973,32
8.39000,pos,0.000000,-1.000000,Line,1,-6,-9,1.130973,32
8.656000,pos,-1.000000,0.000000,Line,1,-7,-9,1.130973,32
8.995000,pos,-1.000000,0.000000,Line,1,-8,-9,1.130973,32
9.731000,length,-1.000000,0.000000,Line,1,-8,-9,1.130973,31
10.176000,pos,0.000000,-1.000000,Line,1,-8,-10,1.130973,31
10.612000,pos,1.000000,0.000000,Line,1,-7,-10,1.130973,31
11.16000,pos,0.000000,1.000000,Line,1,-7,-9,1.130973,31
