0.1000,ver,1.000000,0.000000
0.114000,ori,0.000000,0.000000,Line,0,-3,14,1.086058,22
0.114000,ori,0.000000,0.000000,Line,1,-5,0,2.184389,54
0.114000,ori,0.000000,0.000000,Arc,2,-2,15,3.838020,22
0.114000,ori,0.000000,0.000000,Line,3,-22,2,1.046175,39
0.114000,ori,0.000000,0.000000,Line,4,-24,-9,2.221204,27
0.124000,lc:jooioenl,100.000000,4.000000
2.989000,color,1.000000,0.000000
2.989000,ori,0.000000,0.000000,Line,1,-3,14,1.086058,22
4.845000,sel,1.000000,0.000000
5.196000,color,2.000000,0.000000
5.196000,ori,0.000000,0.000000,Line,2,-5,0,2.184389,54
6.199000,color,3.000000,0.000000
6.199000,ori,0.000000,0.000000,Line,3,-5,0,2.184389,54
7.2000,sel,2.000000,0.000000
7.353000,color,3.000000,0.000000
7.353000,ori,0.000000,0.000000,Arc,3,-2,15,3.838020,22
9.159000,color,4.000000,0.000000
9.159000,ori,0.000000,0.000000,Arc,4,-2,15,3.838020,22
9.443000,color,5.000000,0.000000
9.443000,ori,0.000000,0.000000,Arc,5,-2,15,3.838020,22
9.778000,color,6.000000,0.000000
9.778000,ori,0.000000,0.000000,Arc,6,-2,15,3.838020,22
10.79000,color,7.000000,0.000000
10.79000,ori,0.000000,0.000000,Arc,7,-2,15,3.838020,22
10.748000,sel,3.000000,0.000000
11.851000,color,4.000000,0.000000
11.851000,ori,0.000000,0.000000,Line,4,-22,2,1.046175,39
13.55000,color,5.000000,0.000000
13.55000,ori,0.000000,0.000000,Line,5,-22,2,1.046175,39
13.506000,color,6.000000,0.000000
13.506000,ori,0.000000,0.000000,Line,6,-22,2,1.046175,39
13.908000,color,7.000000,0.000000
13.908000,ori,0.000000,0.000000,Line,7,-22,2,1.046175,39
14.359000,color,8.000000,0.000000
14.359000,ori,0.000000,0.000000,Line,8,-22,2,1.046175,39
14.860000,color,0.000000,0.000000
14.860000,ori,0.000000,0.000000,Line,0,-22,2,1.046175,39
15.245000,color,1.000000,0.000000
15.245000,ori,0.000000,0.000000,Line,1,-22,2,1.046175,39
15.881000,sel,4.000000,0.000000
16.31000,color,5.000000,0.000000
16.31000,ori,0.000000,0.000000,Line,5,-24,-9,2.221204,27
16.633000,color,6.000000,0.000000
16.633000,ori,0.000000,0.000000,Line,6,-24,-9,2.221204,27
16.967000,color,7.000000,0.000000
16.967000,ori,0.000000,0.000000,Line,7,-24,-9,2.221204,27
18.54000,sel,0.000000,0.000000
18.500000,color,2.000000,0.000000
18.500000,ori,0.000000,0.000000,Line,2,-3,14,1.086058,22
