0.16000,ver,1.000000,0.000000
0.125000,ori,0.000000,0.000000,Line,0,-43,0,1.570796,48
0.125000,ori,0.000000,0.000000,Line,1,-86,1,0.978680,50
0.125000,ori,0.000000,0.000000,Line,2,-24,-23,3.160000,39
0.125000,ori,0.000000,0.000000,Line,3,-27,23,3.104777,36
0.125000,ori,0.000000,0.000000,Line,4,-37,-3,0.497010,13
0.125000,ori,0.000000,0.000000,Line,5,-28,1,3.147729,23
0.125000,ori,0.000000,0.000000,Line,1004,263,-1,0.000000,17
0.125000,ori,0.000000,0.000000,Line,1003,267,-24,0.000000,24
0.125000,ori,0.000000,0.000000,Line,1002,221,0,1.000000,52
0.125000,ori,0.000000,0.000000,Line,1001,254,0,1.564505,52
0.125000,ori,0.000000,0.000000,Line,10,266,24,3.141126,26
0.125000,lc:fk,100.000000,1.000000
1.264000,color,1.000000,0.000000
1.264000,ori,0.000000,0.000000,Line,1,-43,0,1.570796,48
3.261000,color,2.000000,0.000000
3.261000,ori,0.000000,0.000000,Line,2,-43,0,1.570796,48
4.72000,sel,1.000000,0.000000
4.228000,color,2.000000,0.000000
4.228000,ori,0.000000,0.000000,Line,2,-86,1,0.978680,50
5.289000,color,3.000000,0.000000
5.289000,ori,0.000000,0.000000,Line,3,-86,1,0.978680,50
6.287000,sel,2.000000,0.000000
7.145000,color,3.000000,0.000000
7.145000,ori,0.000000,0.000000,Line,3,-24,-23,3.160000,39
8.284000,color,4.000000,0.000000
8.284000,ori,0.000000,0.000000,Line,4,-24,-23,3.160000,39
8.690000,color,5.000000,0.000000
8.690000,ori,0.000000,0.000000,Line,5,-24,-23,3.160000,39
9.392000,color,6.000000,0.000000
9.392000,ori,0.000000,0.000000,Line,6,-24,-23,3.160000,39
9.969000,color,7.000000,0.000000
9.969000,ori,0.000000,0.000000,Line,7,-24,-23,3.160000,39
10.499000,color,8.000000,0.000000
10.499000,ori,0.000000,0.000000,Line,8,-24,-23,3.160000,39
10.936000,color,0.000000,0.000000
10.936000,ori,0.000000,0.000000,Line,0,-24,-23,3.160000,39
11.435000,color,1.000000,0.000000
11.435000,ori,0.000000,0.000000,Line,1,-24,-23,3.160000,39
12.168000,sel,3.000000,0.000000
12.636000,color,4.000000,0.000000
12.636000,ori,0.000000,0.000000,Line,4,-27,23,3.104777,36
16.911000,color,5.000000,0.000000
16.911000,ori,0.000000,0.000000,Line,5,-27,23,3.104777,36
17.332000,color,6.000000,0.000000
17.332000,ori,0.000000,0.000000,Line,6,-27,23,3.104777,36
17.753000,color,7.000000,0.000000
17.753000,ori,0.000000,0.000000,Line,7,-27,23,3.104777,36
18.596000,sel,4.000000,0.000000
18.736000,color,5.000000,0.000000
18.736000,ori,0.000000,0.000000,Line,5,-37,-3,0.497010,13
20.358000,color,6.000000,0.000000
20.358000,ori,0.000000,0.000000,Line,6,-37,-3,0.497010,13
20.717000,color,7.000000,0.000000
20.717000,ori,0.000000,0.000000,Line,7,-37,-3,0.497010,13
21.154000,color,8.000000,0.000000
21.154000,ori,0.000000,0.000000,Line,8,-37,-3,0.497010,13
21.560000,color,0.000000,0.000000
21.560000,ori,0.000000,0.000000,Line,0,-37,-3,0.497010,13
33.478000,sel,5.000000,0.000000
33.634000,color,6.000000,0.000000
33.634000,ori,0.000000,0.000000,Line,6,-28,1,3.147729,23
34.913000,color,7.000000,0.000000
34.913000,ori,0.000000,0.000000,Line,7,-28,1,3.147729,23
35.303000,color,8.000000,0.000000
35.303000,ori,0.000000,0.000000,Line,8,-28,1,3.147729,23
35.678000,color,0.000000,0.000000
35.678000,ori,0.000000,0.000000,Line,0,-28,1,3.147729,23
35.974000,color,1.000000,0.000000
35.974000,ori,0.000000,0.000000,Line,1,-28,1,3.147729,23
36.286000,color,2.000000,0.000000
36.286000,ori,0.000000,0.000000,Line,2,-28,1,3.147729,23
36.614000,color,3.000000,0.000000
36.614000,ori,0.000000,0.000000,Line,3,-28,1,3.147729,23
36.910000,color,4.000000,0.000000
36.910000,ori,0.000000,0.000000,Line,4,-28,1,3.147729,23
37.206000,color,5.000000,0.000000
37.206000,ori,0.000000,0.000000,Line,5,-28,1,3.147729,23
37.986000,sel,6.000000,0.000000
38.158000,color,2.000000,0.000000
38.158000,ori,0.000000,0.000000,Line,2,266,24,3.141126,26
39.780000,color,3.000000,0.000000
39.780000,ori,0.000000,0.000000,Line,3,266,24,3.141126,26
40.217000,color,4.000000,0.000000
40.217000,ori,0.000000,0.000000,Line,4,266,24,3.141126,26
40.607000,color,5.000000,0.000000
40.607000,ori,0.000000,0.000000,Line,5,266,24,3.141126,26
41.13000,color,6.000000,0.000000
41.13000,ori,0.000000,0.000000,Line,6,266,24,3.141126,26
41.418000,color,7.000000,0.000000
41.418000,ori,0.000000,0.000000,Line,7,266,24,3.141126,26
41.824000,color,8.000000,0.000000
41.824000,ori,0.000000,0.000000,Line,8,266,24,3.141126,26
42.214000,color,0.000000,0.000000
42.214000,ori,0.000000,0.000000,Line,0,266,24,3.141126,26
42.588000,color,1.000000,0.000000
42.588000,ori,0.000000,0.000000,Line,1,266,24,3.141126,26
51.777000,color,2.000000,0.000000
51.777000,ori,0.000000,0.000000,Line,2,266,24,3.141126,26
52.713000,color,3.000000,0.000000
52.713000,ori,0.000000,0.000000,Line,3,266,24,3.141126,26
53.758000,color,4.000000,0.000000
53.758000,ori,0.000000,0.000000,Line,4,266,24,3.141126,26
54.616000,color,5.000000,0.000000
54.616000,ori,0.000000,0.000000,Line,5,266,24,3.141126,26
55.334000,color,6.000000,0.000000
55.334000,ori,0.000000,0.000000,Line,6,266,24,3.141126,26
55.911000,color,7.000000,0.000000
55.911000,ori,0.000000,0.000000,Line,7,266,24,3.141126,26
56.582000,color,8.000000,0.000000
56.582000,ori,0.000000,0.000000,Line,8,266,24,3.141126,26
57.767000,sel,0.000000,0.000000
58.110000,color,3.000000,0.000000
58.110000,ori,0.000000,0.000000,Line,3,-43,0,1.570796,48
59.187000,color,4.000000,0.000000
59.187000,ori,0.000000,0.000000,Line,4,-43,0,1.570796,48
59.343000,color,5.000000,0.000000
59.343000,ori,0.000000,0.000000,Line,5,-43,0,1.570796,48
59.514000,color,6.000000,0.000000
59.514000,ori,0.000000,0.000000,Line,6,-43,0,1.570796,48
59.670000,color,7.000000,0.000000
59.670000,ori,0.000000,0.000000,Line,7,-43,0,1.570796,48
59.795000,color,8.000000,0.000000
59.795000,ori,0.000000,0.000000,Line,8,-43,0,1.570796,48
59.967000,color,0.000000,0.000000
59.967000,ori,0.000000,0.000000,Line,0,-43,0,1.570796,48
60.388000,color,1.000000,0.000000
60.388000,ori,0.000000,0.000000,Line,1,-43,0,1.570796,48
60.856000,color,2.000000,0.000000
60.856000,ori,0.000000,0.000000,Line,2,-43,0,1.570796,48
61.589000,sel,1.000000,0.000000
61.901000,color,4.000000,0.000000
61.901000,ori,0.000000,0.000000,Line,4,-86,1,0.978680,50
62.744000,color,5.000000,0.000000
62.744000,ori,0.000000,0.000000,Line,5,-86,1,0.978680,50
62.900000,color,6.000000,0.000000
62.900000,ori,0.000000,0.000000,Line,6,-86,1,0.978680,50
63.56000,color,7.000000,0.000000
63.56000,ori,0.000000,0.000000,Line,7,-86,1,0.978680,50
63.212000,color,8.000000,0.000000
63.212000,ori,0.000000,0.000000,Line,8,-86,1,0.978680,50
63.383000,color,0.000000,0.000000
63.383000,ori,0.000000,0.000000,Line,0,-86,1,0.978680,50
63.758000,color,1.000000,0.000000
63.758000,ori,0.000000,0.000000,Line,1,-86,1,0.978680,50
64.241000,color,2.000000,0.000000
64.241000,ori,0.000000,0.000000,Line,2,-86,1,0.978680,50
64.631000,color,3.000000,0.000000
64.631000,ori,0.000000,0.000000,Line,3,-86,1,0.978680,50
65.302000,sel,2.000000,0.000000
65.614000,color,2.000000,0.000000
65.614000,ori,0.000000,0.000000,Line,2,-24,-23,3.160000,39
66.566000,color,3.000000,0.000000
66.566000,ori,0.000000,0.000000,Line,3,-24,-23,3.160000,39
66.722000,color,4.000000,0.000000
66.722000,ori,0.000000,0.000000,Line,4,-24,-23,3.160000,39
66.878000,color,5.000000,0.000000
66.878000,ori,0.000000,0.000000,Line,5,-24,-23,3.160000,39
67.18000,color,6.000000,0.000000
67.18000,ori,0.000000,0.000000,Line,6,-24,-23,3.160000,39
67.658000,color,7.000000,0.000000
67.658000,ori,0.000000,0.000000,Line,7,-24,-23,3.160000,39
68.48000,color,8.000000,0.000000
68.48000,ori,0.000000,0.000000,Line,8,-24,-23,3.160000,39
68.516000,color,0.000000,0.000000
68.516000,ori,0.000000,0.000000,Line,0,-24,-23,3.160000,39
68.952000,color,1.000000,0.000000
68.952000,ori,0.000000,0.000000,Line,1,-24,-23,3.160000,39
69.405000,color,2.000000,0.000000
69.405000,ori,0.000000,0.000000,Line,2,-24,-23,3.160000,39
69.966000,color,3.000000,0.000000
69.966000,ori,0.000000,0.000000,Line,3,-24,-23,3.160000,39
70.419000,color,4.000000,0.000000
70.419000,ori,0.000000,0.000000,Line,4,-24,-23,3.160000,39
71.292000,sel,3.000000,0.000000
71.760000,color,8.000000,0.000000
71.760000,ori,0.000000,0.000000,Line,8,-27,23,3.104777,36
