0.16000,ver,1.000000,0.000000
0.94000,ori,0.000000,0.000000,Line,0,-47,-2,2.055534,39
0.94000,ori,0.000000,0.000000,Line,1,-58,-6,1.570796,48
0.94000,ori,0.000000,0.000000,Arc,2,-57,-6,3.064894,45
0.94000,ori,0.000000,0.000000,Line,3,-47,-12,1.116738,39
0.94000,ori,0.000000,0.000000,Line,1003,250,-1,1.573709,52
0.94000,ori,0.000000,0.000000,Arc,1002,251,-1,3.147262,49
0.110000,lc:akjg,100.000000,2.000000
0.780000,color,1.000000,0.000000
0.780000,ori,0.000000,0.000000,Line,1,-47,-2,2.055534,39
5.226000,sel,1.000000,0.000000
5.850000,color,2.000000,0.000000
5.850000,ori,0.000000,0.000000,Line,2,-58,-6,1.570796,48
6.521000,color,3.000000,0.000000
6.521000,ori,0.000000,0.000000,Line,3,-58,-6,1.570796,48
7.209000,color,4.000000,0.000000
7.209000,ori,0.000000,0.000000,Line,4,-58,-6,1.570796,48
7.911000,sel,2.000000,0.000000
8.347000,color,3.000000,0.000000
8.347000,ori,0.000000,0.000000,Arc,3,-57,-6,3.064894,45
9.689000,sel,3.000000,0.000000
9.939000,color,4.000000,0.000000
9.939000,ori,0.000000,0.000000,Line,4,-47,-12,1.116738,39
10.422000,color,5.000000,0.000000
10.422000,ori,0.000000,0.000000,Line,5,-47,-12,1.116738,39
10.906000,color,6.000000,0.000000
10.906000,ori,0.000000,0.000000,Line,6,-47,-12,1.116738,39
11.467000,color,7.000000,0.000000
11.467000,ori,0.000000,0.000000,Line,7,-47,-12,1.116738,39
11.982000,color,8.000000,0.000000
11.982000,ori,0.000000,0.000000,Line,8,-47,-12,1.116738,39
12.435000,color,0.000000,0.000000
12.435000,ori,0.000000,0.000000,Line,0,-47,-12,1.116738,39
