0.15000,ver,1.000000,0.000000
0.156000,ori,0.000000,0.000000,Line,0,-205,-17,-0.009204,33
0.156000,ori,0.000000,0.000000,Line,1,-212,1,2.199728,39
0.156000,ori,0.000000,0.000000,Arc,2,-240,-40,1.570796,12
0.156000,ori,0.000000,0.000000,Line,3,-232,-23,1.570796,39
0.156000,ori,0.000000,0.000000,Arc,4,-228,-9,0.046019,21
0.156000,ori,0.000000,0.000000,Arc,1003,3,-10,-0.049087,17
0.156000,ori,0.000000,0.000000,Arc,1002,-1,-33,1.570796,10
0.156000,ori,0.000000,0.000000,Line,1001,4,-17,1.570796,33
0.156000,lc:hohg,100.000000,2.000000
1.295000,color,1.000000,0.000000
1.295000,ori,0.000000,0.000000,Line,1,-205,-17,-0.009204,33
2.792000,sel,1.000000,0.000000
2.917000,color,2.000000,0.000000
2.917000,ori,0.000000,0.000000,Line,2,-212,1,2.199728,39
3.354000,color,3.000000,0.000000
3.354000,ori,0.000000,0.000000,Line,3,-212,1,2.199728,39
3.635000,color,4.000000,0.000000
3.635000,ori,0.000000,0.000000,Line,4,-212,1,2.199728,39
3.915000,color,5.000000,0.000000
3.915000,ori,0.000000,0.000000,Line,5,-212,1,2.199728,39
4.212000,color,6.000000,0.000000
4.212000,ori,0.000000,0.000000,Line,6,-212,1,2.199728,39
4.649000,color,7.000000,0.000000
4.649000,ori,0.000000,0.000000,Line,7,-212,1,2.199728,39
5.7000,color,8.000000,0.000000
5.7000,ori,0.000000,0.000000,Line,8,-212,1,2.199728,39
5.382000,color,0.000000,0.000000
5.382000,ori,0.000000,0.000000,Line,0,-212,1,2.199728,39
5.990000,sel,2.000000,0.000000
6.255000,color,3.000000,0.000000
6.255000,ori,0.000000,0.000000,Arc,3,-240,-40,1.570796,12
7.301000,sel,3.000000,0.000000
7.425000,color,4.000000,0.000000
7.425000,ori,0.000000,0.000000,Line,4,-232,-23,1.570796,39
7.925000,color,5.000000,0.000000
7.925000,ori,0.000000,0.000000,Line,5,-232,-23,1.570796,39
8.627000,color,6.000000,0.000000
8.627000,ori,0.000000,0.000000,Line,6,-232,-23,1.570796,39
9.141000,color,7.000000,0.000000
9.141000,ori,0.000000,0.000000,Line,7,-232,-23,1.570796,39
9.625000,color,8.000000,0.000000
9.625000,ori,0.000000,0.000000,Line,8,-232,-23,1.570796,39
10.140000,color,0.000000,0.000000
10.140000,ori,0.000000,0.000000,Line,0,-232,-23,1.570796,39
10.608000,color,1.000000,0.000000
10.608000,ori,0.000000,0.000000,Line,1,-232,-23,1.570796,39
11.123000,color,2.000000,0.000000
11.123000,ori,0.000000,0.000000,Line,2,-232,-23,1.570796,39
