0.16000,ver,1.000000,0.000000
0.109000,ori,0.000000,0.000000,Line,0,-45,-22,0.000000,30
0.109000,ori,0.000000,0.000000,Line,1,-48,1,1.119806,51
0.109000,ori,0.000000,0.000000,Line,2,-55,17,2.236544,29
0.109000,ori,0.000000,0.000000,Line,3,-53,21,3.153864,31
0.109000,ori,0.000000,0.000000,Line,1002,261,23,0.006136,31
0.109000,ori,0.000000,0.000000,Line,1001,263,-22,3.168738,31
0.109000,ori,0.000000,0.000000,Line,6,262,0,1.046175,52
0.109000,lc:mj,100.000000,1.000000
1.108000,color,1.000000,0.000000
1.108000,ori,0.000000,0.000000,Line,1,-45,-22,0.000000,30
3.869000,color,2.000000,0.000000
3.869000,ori,0.000000,0.000000,Line,2,-45,-22,0.000000,30
5.179000,sel,1.000000,0.000000
5.710000,color,2.000000,0.000000
5.710000,ori,0.000000,0.000000,Line,2,-48,1,1.119806,51
6.146000,color,3.000000,0.000000
6.146000,ori,0.000000,0.000000,Line,3,-48,1,1.119806,51
6.349000,color,4.000000,0.000000
6.349000,ori,0.000000,0.000000,Line,4,-48,1,1.119806,51
6.911000,color,5.000000,0.000000
6.911000,ori,0.000000,0.000000,Line,5,-48,1,1.119806,51
7.316000,color,6.000000,0.000000
7.316000,ori,0.000000,0.000000,Line,6,-48,1,1.119806,51
7.862000,sel,2.000000,0.000000
8.34000,color,3.000000,0.000000
8.34000,ori,0.000000,0.000000,Line,3,-55,17,2.236544,29
8.908000,color,4.000000,0.000000
8.908000,ori,0.000000,0.000000,Line,4,-55,17,2.236544,29
9.360000,color,5.000000,0.000000
9.360000,ori,0.000000,0.000000,Line,5,-55,17,2.236544,29
9.828000,color,6.000000,0.000000
9.828000,ori,0.000000,0.000000,Line,6,-55,17,2.236544,29
10.296000,color,7.000000,0.000000
10.296000,ori,0.000000,0.000000,Line,7,-55,17,2.236544,29
10.780000,color,8.000000,0.000000
10.780000,ori,0.000000,0.000000,Line,8,-55,17,2.236544,29
11.232000,color,0.000000,0.000000
11.232000,ori,0.000000,0.000000,Line,0,-55,17,2.236544,29
