0.0,ver,1.000000,0.000000
0.78000,ori,0.000000,0.000000,Line,0,-53,15,0.865165,39
0.78000,ori,0.000000,0.000000,Line,1,-41,3,1.570796,51
0.78000,ori,0.000000,0.000000,Line,2,-24,-2,0.671884,17
0.78000,ori,0.000000,0.000000,Line,3,-29,16,2.261088,36
0.78000,lc:olocoelg,100.000000,4.000000
1.216000,color,1.000000,0.000000
1.216000,ori,0.000000,0.000000,Line,1,-53,15,0.865165,39
1.996000,color,2.000000,0.000000
1.996000,ori,0.000000,0.000000,Line,2,-53,15,0.865165,39
2.714000,sel,1.000000,0.000000
2.808000,color,2.000000,0.000000
2.808000,ori,0.000000,0.000000,Line,2,-41,3,1.570796,51
3.369000,color,3.000000,0.000000
3.369000,ori,0.000000,0.000000,Line,3,-41,3,1.570796,51
3.572000,color,4.000000,0.000000
3.572000,ori,0.000000,0.000000,Line,4,-41,3,1.570796,51
3.744000,color,5.000000,0.000000
3.744000,ori,0.000000,0.000000,Line,5,-41,3,1.570796,51
3.931000,color,6.000000,0.000000
3.931000,ori,0.000000,0.000000,Line,6,-41,3,1.570796,51
4.87000,color,7.000000,0.000000
4.87000,ori,0.000000,0.000000,Line,7,-41,3,1.570796,51
4.461000,color,8.000000,0.000000
4.461000,ori,0.000000,0.000000,Line,8,-41,3,1.570796,51
4.867000,color,0.000000,0.000000
4.867000,ori,0.000000,0.000000,Line,0,-41,3,1.570796,51
5.210000,color,1.000000,0.000000
5.210000,ori,0.000000,0.000000,Line,1,-41,3,1.570796,51
5.803000,sel,2.000000,0.000000
6.68000,color,3.000000,0.000000
6.68000,ori,0.000000,0.000000,Line,3,-24,-2,0.671884,17
7.209000,sel,3.000000,0.000000
7.287000,color,4.000000,0.000000
7.287000,ori,0.000000,0.000000,Line,4,-29,16,2.261088,36
7.583000,color,5.000000,0.000000
7.583000,ori,0.000000,0.000000,Line,5,-29,16,2.261088,36
7.755000,color,6.000000,0.000000
7.755000,ori,0.000000,0.000000,Line,6,-29,16,2.261088,36
7.926000,color,7.000000,0.000000
7.926000,ori,0.000000,0.000000,Line,7,-29,16,2.261088,36
8.67000,color,8.000000,0.000000
8.67000,ori,0.000000,0.000000,Line,8,-29,16,2.261088,36
8.584000,color,0.000000,0.000000
8.584000,ori,0.000000,0.000000,Line,0,-29,16,2.261088,36
