0.0,ver,1.000000,0.000000
0.62000,ori,0.000000,0.000000,Line,0,-67,5,0.012272,27
0.62000,ori,0.000000,0.000000,Line,1,-55,-6,1.570796,27
0.62000,ori,0.000000,0.000000,Arc,2,-69,12,0.150330,54
0.62000,ori,0.000000,0.000000,Line,3,-80,14,1.972699,63
0.62000,ori,0.000000,0.000000,Arc,1003,265,-1,0.000000,50
0.62000,ori,0.000000,0.000000,Line,1001,273,-17,1.564505,23
0.62000,ori,0.000000,0.000000,Line,6,264,-6,3.138058,20
0.78000,lc:mj,100.000000,1.000000
0.639000,color,1.000000,0.000000
0.639000,ori,0.000000,0.000000,Line,1,-67,5,0.012272,27
2.683000,color,2.000000,0.000000
2.683000,ori,0.000000,0.000000,Line,2,-67,5,0.012272,27
3.120000,color,3.000000,0.000000
3.120000,ori,0.000000,0.000000,Line,3,-67,5,0.012272,27
3.494000,color,4.000000,0.000000
3.494000,ori,0.000000,0.000000,Line,4,-67,5,0.012272,27
3.931000,color,5.000000,0.000000
3.931000,ori,0.000000,0.000000,Line,5,-67,5,0.012272,27
4.368000,color,6.000000,0.000000
4.368000,ori,0.000000,0.000000,Line,6,-67,5,0.012272,27
5.288000,sel,1.000000,0.000000
5.413000,color,2.000000,0.000000
5.413000,ori,0.000000,0.000000,Line,2,-55,-6,1.570796,27
6.489000,sel,2.000000,0.000000
6.614000,color,3.000000,0.000000
6.614000,ori,0.000000,0.000000,Arc,3,-69,12,0.150330,54
7.597000,color,4.000000,0.000000
7.597000,ori,0.000000,0.000000,Arc,4,-69,12,0.150330,54
8.112000,sel,3.000000,0.000000
8.751000,color,4.000000,0.000000
8.751000,ori,0.000000,0.000000,Line,4,-80,14,1.972699,63
9.79000,color,5.000000,0.000000
9.79000,ori,0.000000,0.000000,Line,5,-80,14,1.972699,63
9.266000,color,6.000000,0.000000
9.266000,ori,0.000000,0.000000,Line,6,-80,14,1.972699,63
9.438000,color,7.000000,0.000000
9.438000,ori,0.000000,0.000000,Line,7,-80,14,1.972699,63
9.843000,color,8.000000,0.000000
9.843000,ori,0.000000,0.000000,Line,8,-80,14,1.972699,63
10.155000,color,0.000000,0.000000
10.155000,ori,0.000000,0.000000,Line,0,-80,14,1.972699,63
