0.15000,ver,1.000000,0.000000
0.84000,ori,0.000000,0.000000,Line,1,-194,-19,3.160000,36
0.87000,lc:ef,100.000000,1.000000
0.87000,del,0.000000,0.000000,Line,0,-19,-313,1.570796,39
1.16000,color,2.000000,0.000000
1.16000,ori,0.000000,0.000000,Line,2,-194,-19,3.160000,36
1.501000,color,3.000000,0.000000
1.501000,ori,0.000000,0.000000,Line,3,-194,-19,3.160000,36
1.853000,color,4.000000,0.000000
1.853000,ori,0.000000,0.000000,Line,4,-194,-19,3.160000,36
2.153000,color,5.000000,0.000000
2.153000,ori,0.000000,0.000000,Line,5,-194,-19,3.160000,36
2.554000,color,6.000000,0.000000
2.554000,ori,0.000000,0.000000,Line,6,-194,-19,3.160000,36
2.989000,color,7.000000,0.000000
2.989000,ori,0.000000,0.000000,Line,7,-194,-19,3.160000,36
3.390000,color,8.000000,0.000000
3.390000,ori,0.000000,0.000000,Line,8,-194,-19,3.160000,36
3.808000,color,0.000000,0.000000
3.808000,ori,0.000000,0.000000,Line,0,-194,-19,3.160000,36
4.445000,sel,1.000000,0.000000
5.297000,color,1.000000,0.000000
5.297000,ori,0.000000,0.000000,Line,1,-194,-19,3.160000,36
5.865000,color,2.000000,0.000000
5.865000,ori,0.000000,0.000000,Line,2,-194,-19,3.160000,36
6.49000,color,3.000000,0.000000
6.49000,ori,0.000000,0.000000,Line,3,-194,-19,3.160000,36
6.216000,color,4.000000,0.000000
6.216000,ori,0.000000,0.000000,Line,4,-194,-19,3.160000,36
6.384000,color,5.000000,0.000000
6.384000,ori,0.000000,0.000000,Line,5,-194,-19,3.160000,36
6.518000,color,6.000000,0.000000
6.518000,ori,0.000000,0.000000,Line,6,-194,-19,3.160000,36
6.684000,color,7.000000,0.000000
6.684000,ori,0.000000,0.000000,Line,7,-194,-19,3.160000,36
6.952000,color,8.000000,0.000000
6.952000,ori,0.000000,0.000000,Line,8,-194,-19,3.160000,36
7.320000,color,0.000000,0.000000
7.320000,ori,0.000000,0.000000,Line,0,-194,-19,3.160000,36
