0.16000,ver,1.000000,0.000000
0.94000,ori,0.000000,0.000000,Line,0,-167,2,2.187457,27
0.94000,ori,0.000000,0.000000,Line,1,-175,-5,0.687223,66
0.94000,lc:akjg,100.000000,2.000000
1.264000,color,1.000000,0.000000
1.264000,ori,0.000000,0.000000,Line,1,-167,2,2.187457,27
2.278000,sel,1.000000,0.000000
2.403000,color,2.000000,0.000000
2.403000,ori,0.000000,0.000000,Line,2,-175,-5,0.687223,66
2.730000,color,3.000000,0.000000
2.730000,ori,0.000000,0.000000,Line,3,-175,-5,0.687223,66
2.902000,color,4.000000,0.000000
2.902000,ori,0.000000,0.000000,Line,4,-175,-5,0.687223,66
3.58000,color,5.000000,0.000000
3.58000,ori,0.000000,0.000000,Line,5,-175,-5,0.687223,66
3.214000,color,6.000000,0.000000
3.214000,ori,0.000000,0.000000,Line,6,-175,-5,0.687223,66
3.339000,color,7.000000,0.000000
3.339000,ori,0.000000,0.000000,Line,7,-175,-5,0.687223,66
3.510000,color,8.000000,0.000000
3.510000,ori,0.000000,0.000000,Line,8,-175,-5,0.687223,66
4.88000,color,0.000000,0.000000
4.88000,ori,0.000000,0.000000,Line,0,-175,-5,0.687223,66
